EESchema Schematic File Version 4
EELAYER 30 0
EELAYER END
$Descr A3 16535 11693
encoding utf-8
Sheet 1 3
Title "Alan and Friends"
Date ""
Rev "2.1"
Comp "phonemes"
Comment1 "Based on Turing Machine by Music Thing Modular"
Comment2 "CC-BY-SA"
Comment3 ""
Comment4 ""
$EndDescr
$Sheet
S 12300 2000 2550 1950
U 5DE3964E
F0 "bottom_board" 50
F1 "bottom_board.sch" 50
$EndSheet
$Comp
L Device:R R?
U 1 1 5DE9A153
P 5400 7750
AR Path="/5DE395EF/5DE9A153" Ref="R?"  Part="1" 
AR Path="/5DE9A153" Ref="R16"  Part="1" 
F 0 "R16" V 5300 7700 50  0000 C CNN
F 1 "1k" V 5400 7750 50  0000 C CNN
F 2 "Resistor_THT:R_Axial_DIN0207_L6.3mm_D2.5mm_P10.16mm_Horizontal" V 5330 7750 50  0001 C CNN
F 3 "~" H 5400 7750 50  0001 C CNN
	1    5400 7750
	-1   0    0    1   
$EndComp
$Comp
L Connector_Generic:Conn_01x01 J?
U 1 1 5DE9A288
P 5700 7950
AR Path="/5DE395EF/5DE9A288" Ref="J?"  Part="1" 
AR Path="/5DE9A288" Ref="J10"  Part="1" 
F 0 "J10" H 5780 7992 50  0000 L CNN
F 1 "PULSE_2" H 5780 7901 50  0000 L CNN
F 2 "Connector_PinHeader_2.54mm:PinHeader_1x01_P2.54mm_Vertical" H 5700 7950 50  0001 C CNN
F 3 "~" H 5700 7950 50  0001 C CNN
	1    5700 7950
	1    0    0    -1  
$EndComp
$Comp
L Connector_Generic:Conn_01x01 J?
U 1 1 5DEAB3EE
P 9600 9850
AR Path="/5DE395EF/5DEAB3EE" Ref="J?"  Part="1" 
AR Path="/5DEAB3EE" Ref="J17"  Part="1" 
F 0 "J17" H 9679 9892 50  0000 L CNN
F 1 "PULSE_47" H 9679 9801 50  0000 L CNN
F 2 "Connector_PinHeader_2.54mm:PinHeader_1x01_P2.54mm_Vertical" H 9600 9850 50  0001 C CNN
F 3 "~" H 9600 9850 50  0001 C CNN
	1    9600 9850
	1    0    0    -1  
$EndComp
$Comp
L Connector_Generic:Conn_01x01 J?
U 1 1 5DEAB3F5
P 8000 9850
AR Path="/5DE395EF/5DEAB3F5" Ref="J?"  Part="1" 
AR Path="/5DEAB3F5" Ref="J6"  Part="1" 
F 0 "J6" H 8079 9892 50  0000 L CNN
F 1 "PULSE_24" H 8079 9801 50  0000 L CNN
F 2 "Connector_PinHeader_2.54mm:PinHeader_1x01_P2.54mm_Vertical" H 8000 9850 50  0001 C CNN
F 3 "~" H 8000 9850 50  0001 C CNN
	1    8000 9850
	1    0    0    -1  
$EndComp
$Comp
L Connector_Generic:Conn_01x01 J?
U 1 1 5DEAB403
P 6400 9850
AR Path="/5DE395EF/5DEAB403" Ref="J?"  Part="1" 
AR Path="/5DEAB403" Ref="J16"  Part="1" 
F 0 "J16" H 6479 9892 50  0000 L CNN
F 1 "PULSE_12" H 6479 9801 50  0000 L CNN
F 2 "Connector_PinHeader_2.54mm:PinHeader_1x01_P2.54mm_Vertical" H 6400 9850 50  0001 C CNN
F 3 "~" H 6400 9850 50  0001 C CNN
	1    6400 9850
	1    0    0    -1  
$EndComp
$Comp
L Device:R R?
U 1 1 5DEC45E1
P 6100 9650
AR Path="/5DE395EF/5DEC45E1" Ref="R?"  Part="1" 
AR Path="/5DEC45E1" Ref="R22"  Part="1" 
F 0 "R22" V 6000 9600 50  0000 C CNN
F 1 "1k" V 6100 9650 50  0000 C CNN
F 2 "Resistor_THT:R_Axial_DIN0207_L6.3mm_D2.5mm_P10.16mm_Horizontal" V 6030 9650 50  0001 C CNN
F 3 "~" H 6100 9650 50  0001 C CNN
	1    6100 9650
	-1   0    0    1   
$EndComp
$Comp
L Device:R R?
U 1 1 5DEC45E8
P 5850 10050
AR Path="/5DE395EF/5DEC45E8" Ref="R?"  Part="1" 
AR Path="/5DEC45E8" Ref="R23"  Part="1" 
F 0 "R23" V 5750 10000 50  0000 C CNN
F 1 "2k" V 5850 10050 50  0000 C CNN
F 2 "Resistor_THT:R_Axial_DIN0207_L6.3mm_D2.5mm_P10.16mm_Horizontal" V 5780 10050 50  0001 C CNN
F 3 "~" H 5850 10050 50  0001 C CNN
	1    5850 10050
	-1   0    0    1   
$EndComp
$Comp
L Device:LED D?
U 1 1 5DEC45EF
P 5850 9650
AR Path="/5DE395EF/5DEC45EF" Ref="D?"  Part="1" 
AR Path="/5DEC45EF" Ref="D2"  Part="1" 
F 0 "D2" H 5900 9750 50  0000 C CNN
F 1 "LED12" H 5850 9850 50  0000 C CNN
F 2 "LED_THT:LED_D3.0mm" H 5850 9650 50  0001 C CNN
F 3 "~" H 5850 9650 50  0001 C CNN
	1    5850 9650
	0    -1   -1   0   
$EndComp
$Comp
L Device:R R?
U 1 1 5DEC4602
P 9300 9650
AR Path="/5DE395EF/5DEC4602" Ref="R?"  Part="1" 
AR Path="/5DEC4602" Ref="R24"  Part="1" 
F 0 "R24" V 9200 9600 50  0000 C CNN
F 1 "1k" V 9300 9650 50  0000 C CNN
F 2 "Resistor_THT:R_Axial_DIN0207_L6.3mm_D2.5mm_P10.16mm_Horizontal" V 9230 9650 50  0001 C CNN
F 3 "~" H 9300 9650 50  0001 C CNN
	1    9300 9650
	-1   0    0    1   
$EndComp
$Comp
L Device:R R?
U 1 1 5DEC4609
P 9050 10050
AR Path="/5DE395EF/5DEC4609" Ref="R?"  Part="1" 
AR Path="/5DEC4609" Ref="R25"  Part="1" 
F 0 "R25" V 8950 10000 50  0000 C CNN
F 1 "2k" V 9050 10050 50  0000 C CNN
F 2 "Resistor_THT:R_Axial_DIN0207_L6.3mm_D2.5mm_P10.16mm_Horizontal" V 8980 10050 50  0001 C CNN
F 3 "~" H 9050 10050 50  0001 C CNN
	1    9050 10050
	-1   0    0    1   
$EndComp
$Comp
L Device:LED D?
U 1 1 5DEC4610
P 9050 9650
AR Path="/5DE395EF/5DEC4610" Ref="D?"  Part="1" 
AR Path="/5DEC4610" Ref="D3"  Part="1" 
F 0 "D3" H 9100 9750 50  0000 C CNN
F 1 "LED47" H 9050 9850 50  0000 C CNN
F 2 "LED_THT:LED_D3.0mm" H 9050 9650 50  0001 C CNN
F 3 "~" H 9050 9650 50  0001 C CNN
	1    9050 9650
	0    -1   -1   0   
$EndComp
$Comp
L Device:R R?
U 1 1 5DEC4623
P 7700 9650
AR Path="/5DE395EF/5DEC4623" Ref="R?"  Part="1" 
AR Path="/5DEC4623" Ref="R13"  Part="1" 
F 0 "R13" V 7600 9600 50  0000 C CNN
F 1 "1k" V 7700 9650 50  0000 C CNN
F 2 "Resistor_THT:R_Axial_DIN0207_L6.3mm_D2.5mm_P10.16mm_Horizontal" V 7630 9650 50  0001 C CNN
F 3 "~" H 7700 9650 50  0001 C CNN
	1    7700 9650
	-1   0    0    1   
$EndComp
$Comp
L Device:R R?
U 1 1 5DEC462A
P 7450 10050
AR Path="/5DE395EF/5DEC462A" Ref="R?"  Part="1" 
AR Path="/5DEC462A" Ref="R14"  Part="1" 
F 0 "R14" V 7350 10000 50  0000 C CNN
F 1 "2k" V 7450 10050 50  0000 C CNN
F 2 "Resistor_THT:R_Axial_DIN0207_L6.3mm_D2.5mm_P10.16mm_Horizontal" V 7380 10050 50  0001 C CNN
F 3 "~" H 7450 10050 50  0001 C CNN
	1    7450 10050
	-1   0    0    1   
$EndComp
$Comp
L Device:LED D?
U 1 1 5DEC4631
P 7450 9650
AR Path="/5DE395EF/5DEC4631" Ref="D?"  Part="1" 
AR Path="/5DEC4631" Ref="D1"  Part="1" 
F 0 "D1" H 7500 9750 50  0000 C CNN
F 1 "LED24" H 7450 9850 50  0000 C CNN
F 2 "LED_THT:LED_D3.0mm" H 7450 9650 50  0001 C CNN
F 3 "~" H 7450 9650 50  0001 C CNN
	1    7450 9650
	0    -1   -1   0   
$EndComp
Text Notes 850  10700 0    276  Italic 55
Panel board
Text Label 5050 7350 1    47   ~ 0
PULSE_2_TOP
Text Label 7350 9250 2    47   ~ 0
PULSE_24_TOP
Text Label 5750 9250 2    47   ~ 0
PULSE_12_TOP
Text Label 8950 9250 2    47   ~ 0
PULSE_47_TOP
Text Notes 4100 4850 0    50   ~ 0
top/bottom connectors
$Comp
L Device:R_POT RV?
U 1 1 5DF384A6
P 1650 5600
AR Path="/5DE39643/5DF384A6" Ref="RV?"  Part="1" 
AR Path="/5DF384A6" Ref="RV2"  Part="1" 
F 0 "RV2" H 1580 5646 50  0000 R CNN
F 1 "100k" H 1580 5555 50  0000 R CNN
F 2 "custom:alpha_9mm_vert" H 1650 5600 50  0001 C CNN
F 3 "~" H 1650 5600 50  0001 C CNN
	1    1650 5600
	1    0    0    1   
$EndComp
Wire Wire Line
	1100 5350 1650 5350
Wire Wire Line
	1650 5350 1650 5450
Wire Wire Line
	1650 5750 1650 5850
$Comp
L Device:R R?
U 1 1 5DF384B6
P 2150 5600
AR Path="/5DE39643/5DF384B6" Ref="R?"  Part="1" 
AR Path="/5DF384B6" Ref="R7"  Part="1" 
F 0 "R7" V 1943 5600 50  0000 C CNN
F 1 "10k" V 2034 5600 50  0000 C CNN
F 2 "Resistor_THT:R_Axial_DIN0207_L6.3mm_D2.5mm_P10.16mm_Horizontal" V 2080 5600 50  0001 C CNN
F 3 "~" H 2150 5600 50  0001 C CNN
	1    2150 5600
	0    1    1    0   
$EndComp
Wire Wire Line
	1800 5600 2000 5600
$Comp
L Device:R_POT RV?
U 1 1 5DF384BE
P 1650 6500
AR Path="/5DE39643/5DF384BE" Ref="RV?"  Part="1" 
AR Path="/5DF384BE" Ref="RV3"  Part="1" 
F 0 "RV3" H 1580 6546 50  0000 R CNN
F 1 "100k" H 1580 6455 50  0000 R CNN
F 2 "custom:alpha_9mm_vert" H 1650 6500 50  0001 C CNN
F 3 "~" H 1650 6500 50  0001 C CNN
	1    1650 6500
	1    0    0    1   
$EndComp
Wire Wire Line
	1100 6250 1650 6250
Wire Wire Line
	1650 6250 1650 6350
Wire Wire Line
	1650 6650 1650 6750
$Comp
L Device:R R?
U 1 1 5DF384CE
P 2150 6500
AR Path="/5DE39643/5DF384CE" Ref="R?"  Part="1" 
AR Path="/5DF384CE" Ref="R8"  Part="1" 
F 0 "R8" V 1943 6500 50  0000 C CNN
F 1 "10k" V 2034 6500 50  0000 C CNN
F 2 "Resistor_THT:R_Axial_DIN0207_L6.3mm_D2.5mm_P10.16mm_Horizontal" V 2080 6500 50  0001 C CNN
F 3 "~" H 2150 6500 50  0001 C CNN
	1    2150 6500
	0    1    1    0   
$EndComp
Wire Wire Line
	1800 6500 2000 6500
$Comp
L Device:R_POT RV?
U 1 1 5DF384D6
P 1650 7400
AR Path="/5DE39643/5DF384D6" Ref="RV?"  Part="1" 
AR Path="/5DF384D6" Ref="RV4"  Part="1" 
F 0 "RV4" H 1580 7446 50  0000 R CNN
F 1 "100k" H 1580 7355 50  0000 R CNN
F 2 "custom:alpha_9mm_vert" H 1650 7400 50  0001 C CNN
F 3 "~" H 1650 7400 50  0001 C CNN
	1    1650 7400
	1    0    0    1   
$EndComp
Wire Wire Line
	1100 7150 1650 7150
Wire Wire Line
	1650 7150 1650 7250
Wire Wire Line
	1650 7550 1650 7650
$Comp
L Device:R R?
U 1 1 5DF384E6
P 2150 7400
AR Path="/5DE39643/5DF384E6" Ref="R?"  Part="1" 
AR Path="/5DF384E6" Ref="R9"  Part="1" 
F 0 "R9" V 1943 7400 50  0000 C CNN
F 1 "10k" V 2034 7400 50  0000 C CNN
F 2 "Resistor_THT:R_Axial_DIN0207_L6.3mm_D2.5mm_P10.16mm_Horizontal" V 2080 7400 50  0001 C CNN
F 3 "~" H 2150 7400 50  0001 C CNN
	1    2150 7400
	0    1    1    0   
$EndComp
Wire Wire Line
	1800 7400 2000 7400
$Comp
L Device:R_POT RV?
U 1 1 5DF384EE
P 1650 8350
AR Path="/5DE39643/5DF384EE" Ref="RV?"  Part="1" 
AR Path="/5DF384EE" Ref="RV5"  Part="1" 
F 0 "RV5" H 1580 8396 50  0000 R CNN
F 1 "100k" H 1580 8305 50  0000 R CNN
F 2 "custom:alpha_9mm_vert" H 1650 8350 50  0001 C CNN
F 3 "~" H 1650 8350 50  0001 C CNN
	1    1650 8350
	1    0    0    1   
$EndComp
Wire Wire Line
	1100 8100 1650 8100
Wire Wire Line
	1650 8100 1650 8200
Wire Wire Line
	1650 8500 1650 8600
$Comp
L Device:R R?
U 1 1 5DF384FE
P 2150 8350
AR Path="/5DE39643/5DF384FE" Ref="R?"  Part="1" 
AR Path="/5DF384FE" Ref="R10"  Part="1" 
F 0 "R10" V 1943 8350 50  0000 C CNN
F 1 "10k" V 2034 8350 50  0000 C CNN
F 2 "Resistor_THT:R_Axial_DIN0207_L6.3mm_D2.5mm_P10.16mm_Horizontal" V 2080 8350 50  0001 C CNN
F 3 "~" H 2150 8350 50  0001 C CNN
	1    2150 8350
	0    1    1    0   
$EndComp
Wire Wire Line
	1800 8350 2000 8350
$Comp
L Device:R_POT RV?
U 1 1 5DF38506
P 1650 9250
AR Path="/5DE39643/5DF38506" Ref="RV?"  Part="1" 
AR Path="/5DF38506" Ref="RV6"  Part="1" 
F 0 "RV6" H 1580 9296 50  0000 R CNN
F 1 "100k" H 1580 9205 50  0000 R CNN
F 2 "custom:alpha_9mm_vert" H 1650 9250 50  0001 C CNN
F 3 "~" H 1650 9250 50  0001 C CNN
	1    1650 9250
	1    0    0    1   
$EndComp
Wire Wire Line
	1100 9000 1650 9000
Wire Wire Line
	1650 9000 1650 9100
Wire Wire Line
	1650 9400 1650 9500
$Comp
L Device:R R?
U 1 1 5DF38516
P 2150 9250
AR Path="/5DE39643/5DF38516" Ref="R?"  Part="1" 
AR Path="/5DF38516" Ref="R11"  Part="1" 
F 0 "R11" V 1943 9250 50  0000 C CNN
F 1 "10k" V 2034 9250 50  0000 C CNN
F 2 "Resistor_THT:R_Axial_DIN0207_L6.3mm_D2.5mm_P10.16mm_Horizontal" V 2080 9250 50  0001 C CNN
F 3 "~" H 2150 9250 50  0001 C CNN
	1    2150 9250
	0    1    1    0   
$EndComp
Wire Wire Line
	1800 9250 2000 9250
Wire Wire Line
	2300 5600 2650 5600
Wire Wire Line
	2650 5600 2650 6500
Wire Wire Line
	2650 6500 2300 6500
Wire Wire Line
	2650 9250 2300 9250
Wire Wire Line
	2650 6500 2650 7050
Connection ~ 2650 6500
Connection ~ 2650 7400
Wire Wire Line
	2650 7400 2650 8350
Wire Wire Line
	2300 7400 2650 7400
Wire Wire Line
	2300 8350 2650 8350
Connection ~ 2650 8350
Wire Wire Line
	2650 8350 2650 9250
Wire Wire Line
	2650 7050 3200 7050
Connection ~ 2650 7050
Wire Wire Line
	2650 7050 2650 7400
Text Notes 650  4850 0    50   ~ 0
volts controls
Text Label 1100 6250 2    47   ~ 0
GATE_2_TOP
Text Label 1100 7150 2    47   ~ 0
GATE_3_TOP
Text Label 1100 8100 2    47   ~ 0
GATE_4_TOP
Text Label 1100 9000 2    47   ~ 0
GATE_5_TOP
Text Label 3200 7050 0    47   ~ 0
VOLTS_SUM
$Comp
L Device:R_POT RV8
U 1 1 5DFA47B8
P 4250 1650
F 0 "RV8" H 4180 1696 50  0000 R CNN
F 1 "SPAN" H 4180 1605 50  0000 R CNN
F 2 "custom:alpha_9mm_vert" H 4250 1650 50  0001 C CNN
F 3 "~" H 4250 1650 50  0001 C CNN
	1    4250 1650
	1    0    0    1   
$EndComp
$Comp
L Connector_Generic:Conn_01x01 J4
U 1 1 5DFA4FD5
P 5150 1650
F 0 "J4" H 5229 1692 50  0000 L CNN
F 1 "CV1" H 5229 1601 50  0000 L CNN
F 2 "Connector_PinHeader_2.54mm:PinHeader_1x01_P2.54mm_Vertical" H 5150 1650 50  0001 C CNN
F 3 "~" H 5150 1650 50  0001 C CNN
	1    5150 1650
	1    0    0    -1  
$EndComp
Wire Wire Line
	4600 1650 4400 1650
Wire Wire Line
	4250 1800 4250 1900
Wire Wire Line
	4250 1500 4250 1350
Wire Wire Line
	4250 1350 3850 1350
Text Label 3850 1350 2    47   ~ 0
CV1_TOP
$Comp
L Switch:SW_Push_SPDT SW2
U 1 1 5E2DC970
P 7400 2400
F 0 "SW2" H 7400 2685 50  0000 C CNN
F 1 "WRITE" H 7400 2594 50  0000 C CNN
F 2 "Connector_PinSocket_2.54mm:PinSocket_1x03_P2.54mm_Vertical" H 7400 2400 50  0001 C CNN
F 3 "" H 7400 2400 50  0001 C CNN
	1    7400 2400
	1    0    0    1   
$EndComp
Wire Notes Line
	600  4750 3950 4750
Wire Notes Line
	3950 4750 3950 9850
Wire Notes Line
	3950 9850 600  9850
Wire Notes Line
	600  9850 600  4750
$Comp
L Device:R_POT RV1
U 1 1 5E2EB4FF
P 1300 1900
F 0 "RV1" H 1230 1946 50  0000 R CNN
F 1 "SEQUENCE" H 1230 1855 50  0000 R CNN
F 2 "custom:alpha_9mm_vert" H 1300 1900 50  0001 C CNN
F 3 "~" H 1300 1900 50  0001 C CNN
	1    1300 1900
	1    0    0    1   
$EndComp
$Comp
L Connector_Generic:Conn_01x01 J2
U 1 1 5E2EC23B
P 1700 1550
F 0 "J2" H 1750 1650 50  0000 C CNN
F 1 "SEQ_CV" H 1650 1450 50  0000 C CNN
F 2 "Connector_PinHeader_2.54mm:PinHeader_1x01_P2.54mm_Vertical" H 1700 1550 50  0001 C CNN
F 3 "~" H 1700 1550 50  0001 C CNN
	1    1700 1550
	-1   0    0    1   
$EndComp
$Comp
L Connector_Generic:Conn_01x01 J1
U 1 1 5E2F34AD
P 1050 3400
F 0 "J1" H 970 3175 50  0000 C CNN
F 1 "CLOCK" H 970 3266 50  0000 C CNN
F 2 "Connector_PinHeader_2.54mm:PinHeader_1x01_P2.54mm_Vertical" H 1050 3400 50  0001 C CNN
F 3 "~" H 1050 3400 50  0001 C CNN
	1    1050 3400
	-1   0    0    1   
$EndComp
$Comp
L Connector_Generic:Conn_01x01 J7
U 1 1 5E2F3745
P 4500 3650
F 0 "J7" H 4579 3692 50  0000 L CNN
F 1 "PULSE" H 4579 3601 50  0000 L CNN
F 2 "Connector_PinHeader_2.54mm:PinHeader_1x01_P2.54mm_Vertical" H 4500 3650 50  0001 C CNN
F 3 "~" H 4500 3650 50  0001 C CNN
	1    4500 3650
	1    0    0    -1  
$EndComp
$Comp
L Connector_Generic:Conn_01x01 J3
U 1 1 5E2F38AD
P 7550 1150
F 0 "J3" H 7630 1192 50  0000 L CNN
F 1 "NOISE" H 7630 1101 50  0000 L CNN
F 2 "Connector_PinHeader_2.54mm:PinHeader_1x01_P2.54mm_Vertical" H 7550 1150 50  0001 C CNN
F 3 "~" H 7550 1150 50  0001 C CNN
	1    7550 1150
	1    0    0    -1  
$EndComp
Wire Notes Line
	600  4650 600  600 
Wire Notes Line
	600  600  11300 600 
Wire Notes Line
	11300 600  11300 4650
Wire Notes Line
	11300 4650 600  4650
Text Notes 650  700  0    50   ~ 0
machine top controls
$Comp
L Device:R R?
U 1 1 5E34DE49
P 4550 7750
AR Path="/5DE395EF/5E34DE49" Ref="R?"  Part="1" 
AR Path="/5E34DE49" Ref="R15"  Part="1" 
F 0 "R15" V 4450 7700 50  0000 C CNN
F 1 "1k" V 4550 7750 50  0000 C CNN
F 2 "Resistor_THT:R_Axial_DIN0207_L6.3mm_D2.5mm_P10.16mm_Horizontal" V 4480 7750 50  0001 C CNN
F 3 "~" H 4550 7750 50  0001 C CNN
	1    4550 7750
	-1   0    0    1   
$EndComp
Wire Wire Line
	4650 7950 4550 7950
$Comp
L Connector_Generic:Conn_01x01 J?
U 1 1 5E34DE51
P 4850 7950
AR Path="/5DE395EF/5E34DE51" Ref="J?"  Part="1" 
AR Path="/5E34DE51" Ref="J9"  Part="1" 
F 0 "J9" H 4930 7992 50  0000 L CNN
F 1 "PULSE_1" H 4930 7901 50  0000 L CNN
F 2 "Connector_PinHeader_2.54mm:PinHeader_1x01_P2.54mm_Vertical" H 4850 7950 50  0001 C CNN
F 3 "~" H 4850 7950 50  0001 C CNN
	1    4850 7950
	1    0    0    -1  
$EndComp
Text Label 4200 7350 1    47   ~ 0
PULSE_1_TOP
$Comp
L Device:R R?
U 1 1 5E35DA07
P 7100 7750
AR Path="/5DE395EF/5E35DA07" Ref="R?"  Part="1" 
AR Path="/5E35DA07" Ref="R18"  Part="1" 
F 0 "R18" V 7000 7700 50  0000 C CNN
F 1 "1k" V 7100 7750 50  0000 C CNN
F 2 "Resistor_THT:R_Axial_DIN0207_L6.3mm_D2.5mm_P10.16mm_Horizontal" V 7030 7750 50  0001 C CNN
F 3 "~" H 7100 7750 50  0001 C CNN
	1    7100 7750
	-1   0    0    1   
$EndComp
$Comp
L Connector_Generic:Conn_01x01 J?
U 1 1 5E35DA0E
P 7400 7950
AR Path="/5DE395EF/5E35DA0E" Ref="J?"  Part="1" 
AR Path="/5E35DA0E" Ref="J12"  Part="1" 
F 0 "J12" H 7480 7992 50  0000 L CNN
F 1 "PULSE_4" H 7480 7901 50  0000 L CNN
F 2 "Connector_PinHeader_2.54mm:PinHeader_1x01_P2.54mm_Vertical" H 7400 7950 50  0001 C CNN
F 3 "~" H 7400 7950 50  0001 C CNN
	1    7400 7950
	1    0    0    -1  
$EndComp
Text Label 6750 7350 1    47   ~ 0
PULSE_4_TOP
$Comp
L Device:R R?
U 1 1 5E35DA16
P 6250 7750
AR Path="/5DE395EF/5E35DA16" Ref="R?"  Part="1" 
AR Path="/5E35DA16" Ref="R17"  Part="1" 
F 0 "R17" V 6150 7700 50  0000 C CNN
F 1 "1k" V 6250 7750 50  0000 C CNN
F 2 "Resistor_THT:R_Axial_DIN0207_L6.3mm_D2.5mm_P10.16mm_Horizontal" V 6180 7750 50  0001 C CNN
F 3 "~" H 6250 7750 50  0001 C CNN
	1    6250 7750
	-1   0    0    1   
$EndComp
$Comp
L Connector_Generic:Conn_01x01 J?
U 1 1 5E35DA1D
P 6550 7950
AR Path="/5DE395EF/5E35DA1D" Ref="J?"  Part="1" 
AR Path="/5E35DA1D" Ref="J11"  Part="1" 
F 0 "J11" H 6630 7992 50  0000 L CNN
F 1 "PULSE_3" H 6630 7901 50  0000 L CNN
F 2 "Connector_PinHeader_2.54mm:PinHeader_1x01_P2.54mm_Vertical" H 6550 7950 50  0001 C CNN
F 3 "~" H 6550 7950 50  0001 C CNN
	1    6550 7950
	1    0    0    -1  
$EndComp
Text Label 5900 7350 1    47   ~ 0
PULSE_3_TOP
$Comp
L Mechanical:MountingHole H1
U 1 1 5E360700
P 14650 9550
F 0 "H1" H 14750 9596 50  0000 L CNN
F 1 "MountingHole" H 14750 9505 50  0000 L CNN
F 2 "MountingHole:MountingHole_3.2mm_M3" H 14650 9550 50  0001 C CNN
F 3 "~" H 14650 9550 50  0001 C CNN
	1    14650 9550
	1    0    0    -1  
$EndComp
$Comp
L Mechanical:MountingHole H2
U 1 1 5E36089F
P 14650 9800
F 0 "H2" H 14750 9846 50  0000 L CNN
F 1 "MountingHole" H 14750 9755 50  0000 L CNN
F 2 "MountingHole:MountingHole_3.2mm_M3" H 14650 9800 50  0001 C CNN
F 3 "~" H 14650 9800 50  0001 C CNN
	1    14650 9800
	1    0    0    -1  
$EndComp
$Comp
L Device:R R?
U 1 1 5E36893A
P 8800 7750
AR Path="/5DE395EF/5E36893A" Ref="R?"  Part="1" 
AR Path="/5E36893A" Ref="R20"  Part="1" 
F 0 "R20" V 8700 7700 50  0000 C CNN
F 1 "1k" V 8800 7750 50  0000 C CNN
F 2 "Resistor_THT:R_Axial_DIN0207_L6.3mm_D2.5mm_P10.16mm_Horizontal" V 8730 7750 50  0001 C CNN
F 3 "~" H 8800 7750 50  0001 C CNN
	1    8800 7750
	-1   0    0    1   
$EndComp
$Comp
L Connector_Generic:Conn_01x01 J?
U 1 1 5E368941
P 9100 7950
AR Path="/5DE395EF/5E368941" Ref="J?"  Part="1" 
AR Path="/5E368941" Ref="J14"  Part="1" 
F 0 "J14" H 9180 7992 50  0000 L CNN
F 1 "PULSE_6" H 9180 7901 50  0000 L CNN
F 2 "Connector_PinHeader_2.54mm:PinHeader_1x01_P2.54mm_Vertical" H 9100 7950 50  0001 C CNN
F 3 "~" H 9100 7950 50  0001 C CNN
	1    9100 7950
	1    0    0    -1  
$EndComp
Text Label 8450 7350 1    47   ~ 0
PULSE_6_TOP
$Comp
L Device:R R?
U 1 1 5E368949
P 7950 7750
AR Path="/5DE395EF/5E368949" Ref="R?"  Part="1" 
AR Path="/5E368949" Ref="R19"  Part="1" 
F 0 "R19" V 7850 7700 50  0000 C CNN
F 1 "1k" V 7950 7750 50  0000 C CNN
F 2 "Resistor_THT:R_Axial_DIN0207_L6.3mm_D2.5mm_P10.16mm_Horizontal" V 7880 7750 50  0001 C CNN
F 3 "~" H 7950 7750 50  0001 C CNN
	1    7950 7750
	-1   0    0    1   
$EndComp
$Comp
L Connector_Generic:Conn_01x01 J?
U 1 1 5E368950
P 8250 7950
AR Path="/5DE395EF/5E368950" Ref="J?"  Part="1" 
AR Path="/5E368950" Ref="J13"  Part="1" 
F 0 "J13" H 8330 7992 50  0000 L CNN
F 1 "PULSE_5" H 8330 7901 50  0000 L CNN
F 2 "Connector_PinHeader_2.54mm:PinHeader_1x01_P2.54mm_Vertical" H 8250 7950 50  0001 C CNN
F 3 "~" H 8250 7950 50  0001 C CNN
	1    8250 7950
	1    0    0    -1  
$EndComp
Text Label 7600 7350 1    47   ~ 0
PULSE_5_TOP
$Comp
L Device:R R?
U 1 1 5E368967
P 4550 9650
AR Path="/5DE395EF/5E368967" Ref="R?"  Part="1" 
AR Path="/5E368967" Ref="R21"  Part="1" 
F 0 "R21" V 4450 9600 50  0000 C CNN
F 1 "1k" V 4550 9650 50  0000 C CNN
F 2 "Resistor_THT:R_Axial_DIN0207_L6.3mm_D2.5mm_P10.16mm_Horizontal" V 4480 9650 50  0001 C CNN
F 3 "~" H 4550 9650 50  0001 C CNN
	1    4550 9650
	-1   0    0    1   
$EndComp
$Comp
L Connector_Generic:Conn_01x01 J?
U 1 1 5E36896E
P 4850 9850
AR Path="/5DE395EF/5E36896E" Ref="J?"  Part="1" 
AR Path="/5E36896E" Ref="J15"  Part="1" 
F 0 "J15" H 4930 9892 50  0000 L CNN
F 1 "PULSE_7" H 4930 9801 50  0000 L CNN
F 2 "Connector_PinHeader_2.54mm:PinHeader_1x01_P2.54mm_Vertical" H 4850 9850 50  0001 C CNN
F 3 "~" H 4850 9850 50  0001 C CNN
	1    4850 9850
	1    0    0    -1  
$EndComp
Text Label 4200 9250 1    47   ~ 0
PULSE_7_TOP
Wire Notes Line
	4050 10700 10100 10700
Wire Notes Line
	10100 10700 10100 6600
Wire Notes Line
	10100 6600 4050 6600
Wire Notes Line
	4050 6600 4050 10700
Text Notes 4100 6800 0    50   ~ 0
pulses outputs\n(driven by CD4081 from bottom)
$Comp
L custom:SW_8pos SW1
U 1 1 5E39B496
P 7050 3850
F 0 "SW1" H 7050 4425 50  0000 C CNN
F 1 "SW_8pos" H 7050 4334 50  0000 C CNN
F 2 "custom:alpha_rotary_8" H 6850 3750 50  0001 C CNN
F 3 "" H 6850 3750 50  0001 C CNN
	1    7050 3850
	1    0    0    -1  
$EndComp
$Comp
L Device:R R1
U 1 1 5E3B31E4
P 1300 1550
F 0 "R1" H 1370 1596 50  0000 L CNN
F 1 "10k" V 1300 1500 50  0000 L CNN
F 2 "Resistor_THT:R_Axial_DIN0207_L6.3mm_D2.5mm_P10.16mm_Horizontal" V 1230 1550 50  0001 C CNN
F 3 "~" H 1300 1550 50  0001 C CNN
	1    1300 1550
	1    0    0    -1  
$EndComp
Wire Wire Line
	1300 1750 1300 1700
$Comp
L power:+12VA #PWR0110
U 1 1 5E3B5ABF
P 1300 1300
F 0 "#PWR0110" H 1300 1150 50  0001 C CNN
F 1 "+12VA" H 1315 1473 50  0000 C CNN
F 2 "" H 1300 1300 50  0001 C CNN
F 3 "" H 1300 1300 50  0001 C CNN
	1    1300 1300
	1    0    0    -1  
$EndComp
Wire Wire Line
	1300 1400 1300 1300
$Comp
L Device:R R2
U 1 1 5E3B82BD
P 1300 2250
F 0 "R2" H 1370 2296 50  0000 L CNN
F 1 "10k" V 1300 2200 50  0000 L CNN
F 2 "Resistor_THT:R_Axial_DIN0207_L6.3mm_D2.5mm_P10.16mm_Horizontal" V 1230 2250 50  0001 C CNN
F 3 "~" H 1300 2250 50  0001 C CNN
	1    1300 2250
	1    0    0    -1  
$EndComp
Wire Wire Line
	1300 2050 1300 2100
$Comp
L power:-12VA #PWR0111
U 1 1 5E3BA6ED
P 1300 2500
F 0 "#PWR0111" H 1300 2350 50  0001 C CNN
F 1 "-12VA" H 1315 2673 50  0000 C CNN
F 2 "" H 1300 2500 50  0001 C CNN
F 3 "" H 1300 2500 50  0001 C CNN
	1    1300 2500
	-1   0    0    1   
$EndComp
Wire Wire Line
	1300 2500 1300 2400
$Comp
L Device:R R6
U 1 1 5E3C4ADC
P 2100 1900
F 0 "R6" V 2000 1850 50  0000 C CNN
F 1 "100k" V 2100 1900 50  0000 C CNN
F 2 "Resistor_THT:R_Axial_DIN0207_L6.3mm_D2.5mm_P10.16mm_Horizontal" V 2030 1900 50  0001 C CNN
F 3 "~" H 2100 1900 50  0001 C CNN
	1    2100 1900
	0    1    1    0   
$EndComp
Wire Wire Line
	1450 1900 1950 1900
$Comp
L Device:R R5
U 1 1 5E3C792F
P 2100 1550
F 0 "R5" V 2000 1500 50  0000 C CNN
F 1 "51k" V 2100 1550 50  0000 C CNN
F 2 "Resistor_THT:R_Axial_DIN0207_L6.3mm_D2.5mm_P10.16mm_Horizontal" V 2030 1550 50  0001 C CNN
F 3 "~" H 2100 1550 50  0001 C CNN
	1    2100 1550
	0    1    1    0   
$EndComp
Wire Wire Line
	2250 1900 2350 1900
Wire Wire Line
	2350 1900 2350 1700
Wire Wire Line
	2350 1550 2250 1550
Wire Wire Line
	1950 1550 1900 1550
Wire Wire Line
	2350 1700 2550 1700
Connection ~ 2350 1700
Wire Wire Line
	2350 1700 2350 1550
Text Label 2550 1700 0    50   ~ 0
SEQ_CONTROL_TOP
$Comp
L Device:R R3
U 1 1 5E3D80DA
P 1550 3400
F 0 "R3" V 1450 3400 50  0000 C CNN
F 1 "15k" V 1550 3400 50  0000 C CNN
F 2 "Resistor_THT:R_Axial_DIN0207_L6.3mm_D2.5mm_P10.16mm_Horizontal" V 1480 3400 50  0001 C CNN
F 3 "~" H 1550 3400 50  0001 C CNN
	1    1550 3400
	0    1    1    0   
$EndComp
Wire Wire Line
	1400 3400 1250 3400
$Comp
L Device:R R4
U 1 1 5E3DB53F
P 2050 3650
F 0 "R4" H 1950 3650 50  0000 C CNN
F 1 "100k" V 2050 3650 50  0000 C CNN
F 2 "Resistor_THT:R_Axial_DIN0207_L6.3mm_D2.5mm_P10.16mm_Horizontal" V 1980 3650 50  0001 C CNN
F 3 "~" H 2050 3650 50  0001 C CNN
	1    2050 3650
	-1   0    0    1   
$EndComp
$Comp
L Device:C C1
U 1 1 5E3DBC4C
P 1800 3650
F 0 "C1" H 1550 3600 50  0000 L CNN
F 1 "330pF" H 1450 3700 50  0000 L CNN
F 2 "Capacitor_THT:C_Disc_D8.0mm_W2.5mm_P5.00mm" H 1838 3500 50  0001 C CNN
F 3 "~" H 1800 3650 50  0001 C CNN
	1    1800 3650
	1    0    0    -1  
$EndComp
Wire Wire Line
	1700 3400 1800 3400
Wire Wire Line
	2050 3400 2050 3500
Connection ~ 2050 3400
Wire Wire Line
	1800 3500 1800 3400
Connection ~ 1800 3400
Wire Wire Line
	1800 3400 2050 3400
Wire Wire Line
	1800 3800 1800 3950
Wire Wire Line
	1800 3950 2050 3950
Wire Wire Line
	2050 3950 2050 3800
Wire Wire Line
	2050 3950 2050 4050
Connection ~ 2050 3950
$Comp
L power:GND #PWR0112
U 1 1 5E3EBA76
P 2050 4050
F 0 "#PWR0112" H 2050 3800 50  0001 C CNN
F 1 "GND" H 2055 3877 50  0000 C CNN
F 2 "" H 2050 4050 50  0001 C CNN
F 3 "" H 2050 4050 50  0001 C CNN
	1    2050 4050
	1    0    0    -1  
$EndComp
Wire Wire Line
	2050 3400 2300 3400
Text Label 2300 3400 0    50   ~ 0
CLOCK_TOP
$Comp
L Device:R R12
U 1 1 5E3F2405
P 7050 1150
F 0 "R12" V 6950 1100 50  0000 C CNN
F 1 "1k" V 7050 1150 50  0000 C CNN
F 2 "Resistor_THT:R_Axial_DIN0207_L6.3mm_D2.5mm_P10.16mm_Horizontal" V 6980 1150 50  0001 C CNN
F 3 "~" H 7050 1150 50  0001 C CNN
	1    7050 1150
	0    1    1    0   
$EndComp
Wire Wire Line
	7350 1150 7200 1150
Wire Wire Line
	6900 1150 6700 1150
Text Label 6700 1150 2    50   ~ 0
NOISE_TOP
Text Label 3750 3050 2    50   ~ 0
PULSE_8_TOP
Wire Wire Line
	6550 3750 6300 3750
Text Label 6300 3750 2    50   ~ 0
SEQUENCE_END_TOP
NoConn ~ 6550 3950
Wire Wire Line
	7550 3500 7650 3500
Wire Wire Line
	7550 3600 7650 3600
Wire Wire Line
	7550 3700 7650 3700
Wire Wire Line
	7550 3800 7650 3800
Wire Wire Line
	7650 3900 7550 3900
Wire Wire Line
	7550 4000 7650 4000
Wire Wire Line
	7550 4100 7650 4100
Wire Wire Line
	7550 4200 7650 4200
Text Label 7650 4100 0    50   ~ 0
STEP_12_TOP
Text Label 7650 4200 0    50   ~ 0
STEP_16_TOP
$Comp
L power:GND #PWR0113
U 1 1 5E459664
P 7650 2600
F 0 "#PWR0113" H 7650 2350 50  0001 C CNN
F 1 "GND" H 7655 2427 50  0000 C CNN
F 2 "" H 7650 2600 50  0001 C CNN
F 3 "" H 7650 2600 50  0001 C CNN
	1    7650 2600
	1    0    0    -1  
$EndComp
Wire Wire Line
	7600 2500 7650 2500
Wire Wire Line
	7650 2500 7650 2600
$Comp
L power:+12VA #PWR0114
U 1 1 5E45DD13
P 7650 2150
F 0 "#PWR0114" H 7650 2000 50  0001 C CNN
F 1 "+12VA" H 7665 2323 50  0000 C CNN
F 2 "" H 7650 2150 50  0001 C CNN
F 3 "" H 7650 2150 50  0001 C CNN
	1    7650 2150
	1    0    0    -1  
$EndComp
Wire Wire Line
	7600 2300 7650 2300
Wire Wire Line
	7650 2300 7650 2150
$Comp
L Device:R R26
U 1 1 5E462ABE
P 6950 2400
F 0 "R26" V 6850 2350 50  0000 C CNN
F 1 "1k" V 6950 2400 50  0000 C CNN
F 2 "Resistor_THT:R_Axial_DIN0207_L6.3mm_D2.5mm_P10.16mm_Horizontal" V 6880 2400 50  0001 C CNN
F 3 "~" H 6950 2400 50  0001 C CNN
	1    6950 2400
	0    1    1    0   
$EndComp
Wire Wire Line
	7200 2400 7100 2400
Text Label 6700 2400 2    50   ~ 0
WR_SW_TOP
Wire Wire Line
	6800 2400 6700 2400
Text Label 9650 1850 2    47   ~ 0
GATE_2_TOP
Text Label 9650 1550 2    47   ~ 0
GATE_1_TOP
Text Label 9650 2450 2    47   ~ 0
GATE_4_TOP
Text Label 9650 2150 2    47   ~ 0
GATE_3_TOP
Text Label 9650 3050 2    47   ~ 0
GATE_6_TOP
Text Label 9650 2750 2    47   ~ 0
GATE_5_TOP
Text Label 9650 3350 2    47   ~ 0
GATE_7_TOP
Text Label 9650 3650 2    47   ~ 0
GATE_8_TOP
$Comp
L Device:R R28
U 1 1 5E4A5660
P 10450 1550
F 0 "R28" V 10550 1600 50  0000 C CNN
F 1 "2k" V 10450 1550 50  0000 C CNN
F 2 "Resistor_THT:R_Axial_DIN0207_L6.3mm_D2.5mm_P10.16mm_Horizontal" V 10380 1550 50  0001 C CNN
F 3 "~" H 10450 1550 50  0001 C CNN
	1    10450 1550
	0    -1   -1   0   
$EndComp
$Comp
L Device:LED D4
U 1 1 5E4A6750
P 10000 1550
F 0 "D4" H 10000 1350 50  0000 C CNN
F 1 "LED" H 10000 1450 50  0000 C CNN
F 2 "LED_THT:LED_D5.0mm" H 10000 1550 50  0001 C CNN
F 3 "~" H 10000 1550 50  0001 C CNN
	1    10000 1550
	-1   0    0    1   
$EndComp
Wire Wire Line
	9650 1550 9850 1550
Wire Wire Line
	10150 1550 10300 1550
Wire Wire Line
	10600 1550 10650 1550
Wire Wire Line
	10650 1550 10650 1850
$Comp
L Device:R R29
U 1 1 5E4BCB88
P 10450 1850
F 0 "R29" V 10550 1900 50  0000 C CNN
F 1 "2k" V 10450 1850 50  0000 C CNN
F 2 "Resistor_THT:R_Axial_DIN0207_L6.3mm_D2.5mm_P10.16mm_Horizontal" V 10380 1850 50  0001 C CNN
F 3 "~" H 10450 1850 50  0001 C CNN
	1    10450 1850
	0    -1   -1   0   
$EndComp
$Comp
L Device:LED D5
U 1 1 5E4BCB8E
P 10000 1850
F 0 "D5" H 10000 1650 50  0000 C CNN
F 1 "LED" H 10000 1750 50  0000 C CNN
F 2 "LED_THT:LED_D5.0mm" H 10000 1850 50  0001 C CNN
F 3 "~" H 10000 1850 50  0001 C CNN
	1    10000 1850
	-1   0    0    1   
$EndComp
Wire Wire Line
	9650 1850 9850 1850
Wire Wire Line
	10150 1850 10300 1850
$Comp
L Device:R R30
U 1 1 5E4C1EBE
P 10450 2150
F 0 "R30" V 10550 2200 50  0000 C CNN
F 1 "2k" V 10450 2150 50  0000 C CNN
F 2 "Resistor_THT:R_Axial_DIN0207_L6.3mm_D2.5mm_P10.16mm_Horizontal" V 10380 2150 50  0001 C CNN
F 3 "~" H 10450 2150 50  0001 C CNN
	1    10450 2150
	0    -1   -1   0   
$EndComp
$Comp
L Device:LED D6
U 1 1 5E4C1EC4
P 10000 2150
F 0 "D6" H 10000 1950 50  0000 C CNN
F 1 "LED" H 10000 2050 50  0000 C CNN
F 2 "LED_THT:LED_D5.0mm" H 10000 2150 50  0001 C CNN
F 3 "~" H 10000 2150 50  0001 C CNN
	1    10000 2150
	-1   0    0    1   
$EndComp
Wire Wire Line
	9650 2150 9850 2150
Wire Wire Line
	10150 2150 10300 2150
$Comp
L Device:R R31
U 1 1 5E4C1ECC
P 10450 2450
F 0 "R31" V 10550 2500 50  0000 C CNN
F 1 "2k" V 10450 2450 50  0000 C CNN
F 2 "Resistor_THT:R_Axial_DIN0207_L6.3mm_D2.5mm_P10.16mm_Horizontal" V 10380 2450 50  0001 C CNN
F 3 "~" H 10450 2450 50  0001 C CNN
	1    10450 2450
	0    -1   -1   0   
$EndComp
$Comp
L Device:LED D7
U 1 1 5E4C1ED2
P 10000 2450
F 0 "D7" H 10000 2250 50  0000 C CNN
F 1 "LED" H 10000 2350 50  0000 C CNN
F 2 "LED_THT:LED_D5.0mm" H 10000 2450 50  0001 C CNN
F 3 "~" H 10000 2450 50  0001 C CNN
	1    10000 2450
	-1   0    0    1   
$EndComp
Wire Wire Line
	9650 2450 9850 2450
Wire Wire Line
	10150 2450 10300 2450
$Comp
L Device:R R32
U 1 1 5E4C8B69
P 10450 2750
F 0 "R32" V 10550 2800 50  0000 C CNN
F 1 "2k" V 10450 2750 50  0000 C CNN
F 2 "Resistor_THT:R_Axial_DIN0207_L6.3mm_D2.5mm_P10.16mm_Horizontal" V 10380 2750 50  0001 C CNN
F 3 "~" H 10450 2750 50  0001 C CNN
	1    10450 2750
	0    -1   -1   0   
$EndComp
$Comp
L Device:LED D8
U 1 1 5E4C8B6F
P 10000 2750
F 0 "D8" H 10000 2550 50  0000 C CNN
F 1 "LED" H 10000 2650 50  0000 C CNN
F 2 "LED_THT:LED_D5.0mm" H 10000 2750 50  0001 C CNN
F 3 "~" H 10000 2750 50  0001 C CNN
	1    10000 2750
	-1   0    0    1   
$EndComp
Wire Wire Line
	9650 2750 9850 2750
Wire Wire Line
	10150 2750 10300 2750
Wire Wire Line
	10600 2750 10650 2750
$Comp
L Device:R R33
U 1 1 5E4C8B78
P 10450 3050
F 0 "R33" V 10550 3100 50  0000 C CNN
F 1 "2k" V 10450 3050 50  0000 C CNN
F 2 "Resistor_THT:R_Axial_DIN0207_L6.3mm_D2.5mm_P10.16mm_Horizontal" V 10380 3050 50  0001 C CNN
F 3 "~" H 10450 3050 50  0001 C CNN
	1    10450 3050
	0    -1   -1   0   
$EndComp
$Comp
L Device:LED D9
U 1 1 5E4C8B7E
P 10000 3050
F 0 "D9" H 10000 2850 50  0000 C CNN
F 1 "LED" H 10000 2950 50  0000 C CNN
F 2 "LED_THT:LED_D5.0mm" H 10000 3050 50  0001 C CNN
F 3 "~" H 10000 3050 50  0001 C CNN
	1    10000 3050
	-1   0    0    1   
$EndComp
Wire Wire Line
	9650 3050 9850 3050
Wire Wire Line
	10150 3050 10300 3050
$Comp
L Device:R R34
U 1 1 5E4C8B86
P 10450 3350
F 0 "R34" V 10550 3400 50  0000 C CNN
F 1 "2k" V 10450 3350 50  0000 C CNN
F 2 "Resistor_THT:R_Axial_DIN0207_L6.3mm_D2.5mm_P10.16mm_Horizontal" V 10380 3350 50  0001 C CNN
F 3 "~" H 10450 3350 50  0001 C CNN
	1    10450 3350
	0    -1   -1   0   
$EndComp
$Comp
L Device:LED D10
U 1 1 5E4C8B8C
P 10000 3350
F 0 "D10" H 10000 3150 50  0000 C CNN
F 1 "LED" H 10000 3250 50  0000 C CNN
F 2 "LED_THT:LED_D5.0mm" H 10000 3350 50  0001 C CNN
F 3 "~" H 10000 3350 50  0001 C CNN
	1    10000 3350
	-1   0    0    1   
$EndComp
Wire Wire Line
	9650 3350 9850 3350
Wire Wire Line
	10150 3350 10300 3350
$Comp
L Device:R R35
U 1 1 5E4C8B94
P 10450 3650
F 0 "R35" V 10550 3700 50  0000 C CNN
F 1 "2k" V 10450 3650 50  0000 C CNN
F 2 "Resistor_THT:R_Axial_DIN0207_L6.3mm_D2.5mm_P10.16mm_Horizontal" V 10380 3650 50  0001 C CNN
F 3 "~" H 10450 3650 50  0001 C CNN
	1    10450 3650
	0    -1   -1   0   
$EndComp
$Comp
L Device:LED D11
U 1 1 5E4C8B9A
P 10000 3650
F 0 "D11" H 10000 3450 50  0000 C CNN
F 1 "LED" H 10000 3550 50  0000 C CNN
F 2 "LED_THT:LED_D5.0mm" H 10000 3650 50  0001 C CNN
F 3 "~" H 10000 3650 50  0001 C CNN
	1    10000 3650
	-1   0    0    1   
$EndComp
Wire Wire Line
	9650 3650 9850 3650
Wire Wire Line
	10150 3650 10300 3650
Connection ~ 10650 2750
Wire Wire Line
	10650 2750 10650 3050
Wire Wire Line
	10600 1850 10650 1850
Connection ~ 10650 1850
Wire Wire Line
	10650 1850 10650 2150
Wire Wire Line
	10600 2150 10650 2150
Connection ~ 10650 2150
Wire Wire Line
	10650 2150 10650 2450
Wire Wire Line
	10600 2450 10650 2450
Connection ~ 10650 2450
Wire Wire Line
	10650 2450 10650 2750
Wire Wire Line
	10600 3050 10650 3050
Connection ~ 10650 3050
Wire Wire Line
	10650 3050 10650 3350
Wire Wire Line
	10600 3350 10650 3350
Connection ~ 10650 3350
Wire Wire Line
	10650 3350 10650 3650
Wire Wire Line
	10600 3650 10650 3650
Connection ~ 10650 3650
Wire Wire Line
	10650 3650 10650 3950
$Comp
L power:GND #PWR0115
U 1 1 5E4F96DF
P 10650 3950
F 0 "#PWR0115" H 10650 3700 50  0001 C CNN
F 1 "GND" H 10655 3777 50  0000 C CNN
F 2 "" H 10650 3950 50  0001 C CNN
F 3 "" H 10650 3950 50  0001 C CNN
	1    10650 3950
	1    0    0    -1  
$EndComp
$Comp
L Mechanical:MountingHole H13
U 1 1 5E51CB08
P 15500 8500
F 0 "H13" H 15600 8546 50  0000 L CNN
F 1 "Banana" H 15600 8455 50  0000 L CNN
F 2 "custom:banana_hole" H 15500 8500 50  0001 C CNN
F 3 "~" H 15500 8500 50  0001 C CNN
	1    15500 8500
	1    0    0    -1  
$EndComp
$Comp
L Mechanical:MountingHole H5
U 1 1 5E51CCCB
P 14900 8500
F 0 "H5" H 15000 8546 50  0000 L CNN
F 1 "Banana" H 15000 8455 50  0000 L CNN
F 2 "custom:banana_hole" H 14900 8500 50  0001 C CNN
F 3 "~" H 14900 8500 50  0001 C CNN
	1    14900 8500
	1    0    0    -1  
$EndComp
$Comp
L Mechanical:MountingHole H14
U 1 1 5E51D391
P 15500 8750
F 0 "H14" H 15600 8796 50  0000 L CNN
F 1 "Banana" H 15600 8705 50  0000 L CNN
F 2 "custom:banana_hole" H 15500 8750 50  0001 C CNN
F 3 "~" H 15500 8750 50  0001 C CNN
	1    15500 8750
	1    0    0    -1  
$EndComp
$Comp
L Mechanical:MountingHole H6
U 1 1 5E51D397
P 14900 8750
F 0 "H6" H 15000 8796 50  0000 L CNN
F 1 "Banana" H 15000 8705 50  0000 L CNN
F 2 "custom:banana_hole" H 14900 8750 50  0001 C CNN
F 3 "~" H 14900 8750 50  0001 C CNN
	1    14900 8750
	1    0    0    -1  
$EndComp
$Comp
L Mechanical:MountingHole H15
U 1 1 5E5247EB
P 15500 9000
F 0 "H15" H 15600 9046 50  0000 L CNN
F 1 "Banana" H 15600 8955 50  0000 L CNN
F 2 "custom:banana_hole" H 15500 9000 50  0001 C CNN
F 3 "~" H 15500 9000 50  0001 C CNN
	1    15500 9000
	1    0    0    -1  
$EndComp
$Comp
L Mechanical:MountingHole H7
U 1 1 5E5247F1
P 14900 9000
F 0 "H7" H 15000 9046 50  0000 L CNN
F 1 "Banana" H 15000 8955 50  0000 L CNN
F 2 "custom:banana_hole" H 14900 9000 50  0001 C CNN
F 3 "~" H 14900 9000 50  0001 C CNN
	1    14900 9000
	1    0    0    -1  
$EndComp
$Comp
L Mechanical:MountingHole H16
U 1 1 5E5247F7
P 15500 9250
F 0 "H16" H 15600 9296 50  0000 L CNN
F 1 "Banana" H 15600 9205 50  0000 L CNN
F 2 "custom:banana_hole" H 15500 9250 50  0001 C CNN
F 3 "~" H 15500 9250 50  0001 C CNN
	1    15500 9250
	1    0    0    -1  
$EndComp
$Comp
L Mechanical:MountingHole H8
U 1 1 5E5247FD
P 14900 9250
F 0 "H8" H 15000 9296 50  0000 L CNN
F 1 "Banana" H 15000 9205 50  0000 L CNN
F 2 "custom:banana_hole" H 14900 9250 50  0001 C CNN
F 3 "~" H 14900 9250 50  0001 C CNN
	1    14900 9250
	1    0    0    -1  
$EndComp
$Comp
L Mechanical:MountingHole H17
U 1 1 5E533467
P 14250 8500
F 0 "H17" H 14350 8546 50  0000 L CNN
F 1 "Banana" H 14350 8455 50  0000 L CNN
F 2 "custom:banana_hole" H 14250 8500 50  0001 C CNN
F 3 "~" H 14250 8500 50  0001 C CNN
	1    14250 8500
	1    0    0    -1  
$EndComp
$Comp
L Mechanical:MountingHole H9
U 1 1 5E53346D
P 13650 8500
F 0 "H9" H 13750 8546 50  0000 L CNN
F 1 "Banana" H 13750 8455 50  0000 L CNN
F 2 "custom:banana_hole" H 13650 8500 50  0001 C CNN
F 3 "~" H 13650 8500 50  0001 C CNN
	1    13650 8500
	1    0    0    -1  
$EndComp
$Comp
L Mechanical:MountingHole H18
U 1 1 5E533473
P 14250 8750
F 0 "H18" H 14350 8796 50  0000 L CNN
F 1 "Banana" H 14350 8705 50  0000 L CNN
F 2 "custom:banana_hole" H 14250 8750 50  0001 C CNN
F 3 "~" H 14250 8750 50  0001 C CNN
	1    14250 8750
	1    0    0    -1  
$EndComp
$Comp
L Mechanical:MountingHole H10
U 1 1 5E533479
P 13650 8750
F 0 "H10" H 13750 8796 50  0000 L CNN
F 1 "Banana" H 13750 8705 50  0000 L CNN
F 2 "custom:banana_hole" H 13650 8750 50  0001 C CNN
F 3 "~" H 13650 8750 50  0001 C CNN
	1    13650 8750
	1    0    0    -1  
$EndComp
$Comp
L Mechanical:MountingHole H19
U 1 1 5E53347F
P 14250 9000
F 0 "H19" H 14350 9046 50  0000 L CNN
F 1 "Banana" H 14350 8955 50  0000 L CNN
F 2 "custom:banana_hole" H 14250 9000 50  0001 C CNN
F 3 "~" H 14250 9000 50  0001 C CNN
	1    14250 9000
	1    0    0    -1  
$EndComp
$Comp
L Mechanical:MountingHole H11
U 1 1 5E533485
P 13650 9000
F 0 "H11" H 13750 9046 50  0000 L CNN
F 1 "Banana" H 13750 8955 50  0000 L CNN
F 2 "custom:banana_hole" H 13650 9000 50  0001 C CNN
F 3 "~" H 13650 9000 50  0001 C CNN
	1    13650 9000
	1    0    0    -1  
$EndComp
$Comp
L Mechanical:MountingHole H20
U 1 1 5E53348B
P 14250 9250
F 0 "H20" H 14350 9296 50  0000 L CNN
F 1 "Banana" H 14350 9205 50  0000 L CNN
F 2 "custom:banana_hole" H 14250 9250 50  0001 C CNN
F 3 "~" H 14250 9250 50  0001 C CNN
	1    14250 9250
	1    0    0    -1  
$EndComp
$Comp
L Mechanical:MountingHole H12
U 1 1 5E533491
P 13650 9250
F 0 "H12" H 13750 9296 50  0000 L CNN
F 1 "Banana" H 13750 9205 50  0000 L CNN
F 2 "custom:banana_hole" H 13650 9250 50  0001 C CNN
F 3 "~" H 13650 9250 50  0001 C CNN
	1    13650 9250
	1    0    0    -1  
$EndComp
Text Label 1100 5350 2    47   ~ 0
GATE_1_TOP
Text Notes 10250 6700 0    50   ~ 0
volts buffer out
$Comp
L Amplifier_Operational:TL072 U?
U 1 1 5E818F23
P 12500 7500
AR Path="/5DE3964E/5E818F23" Ref="U?"  Part="1" 
AR Path="/5E818F23" Ref="U1"  Part="1" 
F 0 "U1" H 12550 7800 50  0000 C CNN
F 1 "TL072" H 12550 7700 50  0000 C CNN
F 2 "Package_DIP:DIP-8_W7.62mm_Socket_LongPads" H 12500 7500 50  0001 C CNN
F 3 "http://www.ti.com/lit/ds/symlink/tl071.pdf" H 12500 7500 50  0001 C CNN
	1    12500 7500
	1    0    0    1   
$EndComp
$Comp
L Amplifier_Operational:TL072 U?
U 2 1 5E818F2A
P 14000 7600
AR Path="/5DE3964E/5E818F2A" Ref="U?"  Part="2" 
AR Path="/5E818F2A" Ref="U1"  Part="2" 
F 0 "U1" H 14050 7900 50  0000 C CNN
F 1 "TL072" H 14050 7800 50  0000 C CNN
F 2 "Package_DIP:DIP-8_W7.62mm_Socket_LongPads" H 14000 7600 50  0001 C CNN
F 3 "http://www.ti.com/lit/ds/symlink/tl071.pdf" H 14000 7600 50  0001 C CNN
	2    14000 7600
	1    0    0    1   
$EndComp
$Comp
L Amplifier_Operational:TL072 U?
U 3 1 5E818F31
P 10450 7450
AR Path="/5DE3964E/5E818F31" Ref="U?"  Part="3" 
AR Path="/5E818F31" Ref="U1"  Part="3" 
F 0 "U1" H 10408 7496 50  0000 L CNN
F 1 "TL072" H 10408 7405 50  0000 L CNN
F 2 "Package_DIP:DIP-8_W7.62mm_Socket_LongPads" H 10450 7450 50  0001 C CNN
F 3 "http://www.ti.com/lit/ds/symlink/tl071.pdf" H 10450 7450 50  0001 C CNN
	3    10450 7450
	1    0    0    -1  
$EndComp
Wire Wire Line
	12200 7600 12100 7600
Wire Wire Line
	12100 7600 12100 7750
$Comp
L Device:R R?
U 1 1 5E818F40
P 12550 7100
AR Path="/5DE3964E/5E818F40" Ref="R?"  Part="1" 
AR Path="/5E818F40" Ref="R27"  Part="1" 
F 0 "R27" V 12450 7100 50  0000 C CNN
F 1 "8.2K" V 12550 7100 50  0000 C CNN
F 2 "Resistor_THT:R_Axial_DIN0207_L6.3mm_D2.5mm_P10.16mm_Horizontal" V 12480 7100 50  0001 C CNN
F 3 "~" H 12550 7100 50  0001 C CNN
	1    12550 7100
	0    1    1    0   
$EndComp
Wire Wire Line
	12200 7400 12100 7400
Wire Wire Line
	12100 7400 12100 7100
Wire Wire Line
	12100 7100 12400 7100
Wire Wire Line
	12700 7100 13050 7100
Wire Wire Line
	13050 7100 13050 7500
Wire Wire Line
	13050 7500 12800 7500
Wire Wire Line
	13250 7500 13050 7500
Connection ~ 13050 7500
Wire Wire Line
	13700 7500 13600 7500
$Comp
L Device:R R?
U 1 1 5E818F57
P 14050 7100
AR Path="/5DE3964E/5E818F57" Ref="R?"  Part="1" 
AR Path="/5E818F57" Ref="R37"  Part="1" 
F 0 "R37" V 14150 7100 50  0000 C CNN
F 1 "10k" V 14050 7100 50  0000 C CNN
F 2 "Resistor_THT:R_Axial_DIN0207_L6.3mm_D2.5mm_P10.16mm_Horizontal" V 13980 7100 50  0001 C CNN
F 3 "~" H 14050 7100 50  0001 C CNN
	1    14050 7100
	0    1    1    0   
$EndComp
Wire Wire Line
	13600 7500 13600 7100
Wire Wire Line
	13600 7100 13900 7100
Connection ~ 13600 7500
Wire Wire Line
	13600 7500 13550 7500
Wire Wire Line
	14200 7100 14800 7100
Wire Wire Line
	14800 7100 14800 7600
$Comp
L Device:R R?
U 1 1 5E818F64
P 14550 7600
AR Path="/5DE3964E/5E818F64" Ref="R?"  Part="1" 
AR Path="/5E818F64" Ref="R38"  Part="1" 
F 0 "R38" V 14450 7600 50  0000 C CNN
F 1 "1k" V 14550 7600 50  0000 C CNN
F 2 "Resistor_THT:R_Axial_DIN0207_L6.3mm_D2.5mm_P10.16mm_Horizontal" V 14480 7600 50  0001 C CNN
F 3 "~" H 14550 7600 50  0001 C CNN
	1    14550 7600
	0    1    1    0   
$EndComp
Wire Wire Line
	14400 7600 14300 7600
Wire Wire Line
	14800 7600 14700 7600
Wire Wire Line
	14950 7600 14800 7600
Connection ~ 14800 7600
$Comp
L Device:C C?
U 1 1 5E818F6F
P 10900 7250
AR Path="/5DE3964E/5E818F6F" Ref="C?"  Part="1" 
AR Path="/5E818F6F" Ref="C2"  Part="1" 
F 0 "C2" H 11015 7296 50  0000 L CNN
F 1 "100n" H 11015 7205 50  0000 L CNN
F 2 "Capacitor_THT:C_Disc_D8.0mm_W2.5mm_P5.00mm" H 10938 7100 50  0001 C CNN
F 3 "~" H 10900 7250 50  0001 C CNN
	1    10900 7250
	1    0    0    -1  
$EndComp
$Comp
L Device:C C?
U 1 1 5E818F76
P 10900 7650
AR Path="/5DE3964E/5E818F76" Ref="C?"  Part="1" 
AR Path="/5E818F76" Ref="C3"  Part="1" 
F 0 "C3" H 11015 7696 50  0000 L CNN
F 1 "100n" H 11015 7605 50  0000 L CNN
F 2 "Capacitor_THT:C_Disc_D8.0mm_W2.5mm_P5.00mm" H 10938 7500 50  0001 C CNN
F 3 "~" H 10900 7650 50  0001 C CNN
	1    10900 7650
	1    0    0    -1  
$EndComp
Wire Wire Line
	10900 7100 10900 7050
Wire Wire Line
	10900 7050 10600 7050
Wire Wire Line
	10350 7050 10350 7150
Wire Wire Line
	10350 7750 10350 7850
Wire Wire Line
	10350 7850 10600 7850
Wire Wire Line
	10900 7850 10900 7800
Wire Wire Line
	10900 7400 10900 7450
Wire Wire Line
	10900 7450 11400 7450
Wire Wire Line
	11400 7450 11400 7750
Connection ~ 10900 7450
Wire Wire Line
	10900 7450 10900 7500
Wire Wire Line
	12100 7400 11950 7400
Connection ~ 12100 7400
Wire Wire Line
	13700 7700 13600 7700
Wire Wire Line
	13600 7700 13600 7850
Wire Notes Line
	10200 6600 10200 8150
Wire Notes Line
	10200 8150 15850 8150
Wire Notes Line
	15850 8150 15850 6600
Wire Notes Line
	15850 6600 10200 6600
Text Label 11950 7400 2    50   ~ 0
VOLTS_SUM
$Comp
L Connector_Generic:Conn_01x01 J20
U 1 1 5E82436E
P 15150 7600
F 0 "J20" H 15229 7642 50  0000 L CNN
F 1 "CV2" H 15229 7551 50  0000 L CNN
F 2 "Connector_PinHeader_2.54mm:PinHeader_1x01_P2.54mm_Vertical" H 15150 7600 50  0001 C CNN
F 3 "~" H 15150 7600 50  0001 C CNN
	1    15150 7600
	1    0    0    -1  
$EndComp
Wire Wire Line
	10750 5700 10850 5700
Wire Wire Line
	10850 5700 10850 5850
Wire Wire Line
	10250 5700 10150 5700
Wire Wire Line
	10150 5700 10150 5850
Wire Wire Line
	10150 5850 10500 5850
$Comp
L power:GND #PWR?
U 1 1 5EBBE3F3
P 11100 5650
AR Path="/5DE3964E/5EBBE3F3" Ref="#PWR?"  Part="1" 
AR Path="/5EBBE3F3" Ref="#PWR0119"  Part="1" 
F 0 "#PWR0119" H 11100 5400 50  0001 C CNN
F 1 "GND" H 11105 5477 50  0000 C CNN
F 2 "" H 11100 5650 50  0001 C CNN
F 3 "" H 11100 5650 50  0001 C CNN
	1    11100 5650
	1    0    0    -1  
$EndComp
Wire Wire Line
	11100 5650 11100 5600
Wire Wire Line
	11100 5600 10750 5600
$Comp
L power:GND #PWR?
U 1 1 5EBBE3FB
P 9900 5650
AR Path="/5DE3964E/5EBBE3FB" Ref="#PWR?"  Part="1" 
AR Path="/5EBBE3FB" Ref="#PWR0120"  Part="1" 
F 0 "#PWR0120" H 9900 5400 50  0001 C CNN
F 1 "GND" H 9905 5477 50  0000 C CNN
F 2 "" H 9900 5650 50  0001 C CNN
F 3 "" H 9900 5650 50  0001 C CNN
	1    9900 5650
	1    0    0    -1  
$EndComp
Wire Wire Line
	10250 5600 9900 5600
Wire Wire Line
	9900 5600 9900 5650
$Comp
L power:+12VA #PWR?
U 1 1 5EBBE403
P 11600 5050
AR Path="/5DE3964E/5EBBE403" Ref="#PWR?"  Part="1" 
AR Path="/5EBBE403" Ref="#PWR0121"  Part="1" 
F 0 "#PWR0121" H 11600 4900 50  0001 C CNN
F 1 "+12VA" H 11615 5223 50  0000 C CNN
F 2 "" H 11600 5050 50  0001 C CNN
F 3 "" H 11600 5050 50  0001 C CNN
	1    11600 5050
	1    0    0    -1  
$EndComp
Connection ~ 10500 5850
Wire Wire Line
	10500 5850 10850 5850
Wire Notes Line
	4050 4750 4050 6500
Text Label 4950 5300 2    50   ~ 0
PULSE_1_TOP
Text Label 5450 5300 0    50   ~ 0
PULSE_2_TOP
Text Label 4950 5400 2    50   ~ 0
PULSE_3_TOP
Text Label 5450 5400 0    50   ~ 0
PULSE_4_TOP
Text Label 4950 5500 2    50   ~ 0
PULSE_5_TOP
Text Label 5450 5500 0    50   ~ 0
PULSE_6_TOP
Text Label 4950 5600 2    50   ~ 0
PULSE_7_TOP
Text Label 5450 5600 0    50   ~ 0
PULSE_8_TOP
Text Label 5450 5800 0    50   ~ 0
PULSE_12_TOP
Text Label 4950 5700 2    50   ~ 0
PULSE_47_TOP
Text Label 5450 5700 0    50   ~ 0
PULSE_24_TOP
$Comp
L Connector_Generic:Conn_02x06_Odd_Even J?
U 1 1 5EBBE421
P 5250 5600
AR Path="/5DE3964E/5EBBE421" Ref="J?"  Part="1" 
AR Path="/5EBBE421" Ref="J8"  Part="1" 
F 0 "J8" H 5300 6250 50  0000 C CNN
F 1 "PULSES_TOP" H 5300 6350 50  0000 C CNN
F 2 "Connector_PinHeader_2.54mm:PinHeader_2x06_P2.54mm_Vertical" H 5250 5600 50  0001 C CNN
F 3 "~" H 5250 5600 50  0001 C CNN
	1    5250 5600
	-1   0    0    1   
$EndComp
NoConn ~ 4950 5800
Text Label 10250 5300 2    50   ~ 0
CV1_TOP
Text Label 7450 5300 2    50   ~ 0
GATE_1_TOP
Text Label 7950 5300 0    50   ~ 0
GATE_2_TOP
Text Label 7450 5400 2    50   ~ 0
GATE_3_TOP
Text Label 7950 5400 0    50   ~ 0
GATE_4_TOP
Text Label 7450 5500 2    50   ~ 0
GATE_5_TOP
Text Label 7950 5500 0    50   ~ 0
GATE_6_TOP
Text Label 7450 5600 2    50   ~ 0
GATE_7_TOP
Text Label 7650 4000 0    50   ~ 0
GATE_8_TOP
Text Label 7450 5800 2    50   ~ 0
CLOCK_TOP
Text Label 7950 5800 0    50   ~ 0
NOISE_TOP
Text Label 10250 5400 2    50   ~ 0
SEQ_CONTROL_TOP
Text Label 10750 5300 0    50   ~ 0
SEQUENCE_END_TOP
Text Label 10750 5400 0    50   ~ 0
WR_SW_TOP
Text Label 7450 5700 2    50   ~ 0
STEP_16_TOP
Text Label 7950 5700 0    50   ~ 0
STEP_12_TOP
$Comp
L Connector_Generic:Conn_02x06_Odd_Even J?
U 1 1 5EBBE439
P 7750 5600
AR Path="/5DE3964E/5EBBE439" Ref="J?"  Part="1" 
AR Path="/5EBBE439" Ref="J18"  Part="1" 
F 0 "J18" H 7800 6250 50  0000 C CNN
F 1 "GATES_TOP" H 7800 6350 50  0000 C CNN
F 2 "Connector_PinHeader_2.54mm:PinHeader_2x06_P2.54mm_Vertical" H 7750 5600 50  0001 C CNN
F 3 "~" H 7750 5600 50  0001 C CNN
	1    7750 5600
	-1   0    0    1   
$EndComp
Wire Notes Line
	12650 4750 12650 6500
Wire Notes Line
	4050 6500 12650 6500
Wire Notes Line
	4050 4750 12650 4750
Text Notes 11500 1500 0    118  ~ 0
The top board mainly contains interface circuitry.\nThe bottom board has:\n- Logic (gates, shift registers)\n- Noise source\n- Clock shaping
Text Label 7650 3500 0    50   ~ 0
GATE_2_TOP
Text Label 7650 3700 0    50   ~ 0
GATE_4_TOP
Text Label 7650 3600 0    50   ~ 0
GATE_3_TOP
Text Label 7650 3900 0    50   ~ 0
GATE_6_TOP
Text Label 7650 3800 0    50   ~ 0
GATE_5_TOP
Text Label 7950 5600 0    50   ~ 0
GATE_8_TOP
$Comp
L power:+12VA #PWR0187
U 1 1 5E40F856
P 10600 7000
F 0 "#PWR0187" H 10600 6850 50  0001 C CNN
F 1 "+12VA" H 10615 7173 50  0000 C CNN
F 2 "" H 10600 7000 50  0001 C CNN
F 3 "" H 10600 7000 50  0001 C CNN
	1    10600 7000
	1    0    0    -1  
$EndComp
Wire Wire Line
	10600 7000 10600 7050
Connection ~ 10600 7050
Wire Wire Line
	10600 7050 10350 7050
$Comp
L power:-12VA #PWR0188
U 1 1 5E41AEDF
P 10600 7900
F 0 "#PWR0188" H 10600 7750 50  0001 C CNN
F 1 "-12VA" H 10615 8073 50  0000 C CNN
F 2 "" H 10600 7900 50  0001 C CNN
F 3 "" H 10600 7900 50  0001 C CNN
	1    10600 7900
	-1   0    0    1   
$EndComp
Wire Wire Line
	10600 7900 10600 7850
Connection ~ 10600 7850
Wire Wire Line
	10600 7850 10900 7850
$Comp
L power:GND #PWR?
U 1 1 5E434B8F
P 11400 7750
AR Path="/5DE3964E/5E434B8F" Ref="#PWR?"  Part="1" 
AR Path="/5E434B8F" Ref="#PWR0116"  Part="1" 
F 0 "#PWR0116" H 11400 7500 50  0001 C CNN
F 1 "GND" H 11405 7577 50  0000 C CNN
F 2 "" H 11400 7750 50  0001 C CNN
F 3 "" H 11400 7750 50  0001 C CNN
	1    11400 7750
	1    0    0    -1  
$EndComp
$Comp
L power:GND #PWR?
U 1 1 5E434E75
P 12100 7750
AR Path="/5DE3964E/5E434E75" Ref="#PWR?"  Part="1" 
AR Path="/5E434E75" Ref="#PWR0117"  Part="1" 
F 0 "#PWR0117" H 12100 7500 50  0001 C CNN
F 1 "GND" H 12105 7577 50  0000 C CNN
F 2 "" H 12100 7750 50  0001 C CNN
F 3 "" H 12100 7750 50  0001 C CNN
	1    12100 7750
	1    0    0    -1  
$EndComp
$Comp
L power:GND #PWR?
U 1 1 5E434F50
P 13600 7850
AR Path="/5DE3964E/5E434F50" Ref="#PWR?"  Part="1" 
AR Path="/5E434F50" Ref="#PWR0118"  Part="1" 
F 0 "#PWR0118" H 13600 7600 50  0001 C CNN
F 1 "GND" H 13605 7677 50  0000 C CNN
F 2 "" H 13600 7850 50  0001 C CNN
F 3 "" H 13600 7850 50  0001 C CNN
	1    13600 7850
	1    0    0    -1  
$EndComp
$Comp
L power:GND #PWR?
U 1 1 5E43689D
P 1650 5850
AR Path="/5DE3964E/5E43689D" Ref="#PWR?"  Part="1" 
AR Path="/5E43689D" Ref="#PWR0104"  Part="1" 
F 0 "#PWR0104" H 1650 5600 50  0001 C CNN
F 1 "GND" H 1655 5677 50  0000 C CNN
F 2 "" H 1650 5850 50  0001 C CNN
F 3 "" H 1650 5850 50  0001 C CNN
	1    1650 5850
	1    0    0    -1  
$EndComp
$Comp
L power:GND #PWR?
U 1 1 5E436978
P 1650 6750
AR Path="/5DE3964E/5E436978" Ref="#PWR?"  Part="1" 
AR Path="/5E436978" Ref="#PWR0105"  Part="1" 
F 0 "#PWR0105" H 1650 6500 50  0001 C CNN
F 1 "GND" H 1655 6577 50  0000 C CNN
F 2 "" H 1650 6750 50  0001 C CNN
F 3 "" H 1650 6750 50  0001 C CNN
	1    1650 6750
	1    0    0    -1  
$EndComp
$Comp
L power:GND #PWR?
U 1 1 5E436A53
P 1650 7650
AR Path="/5DE3964E/5E436A53" Ref="#PWR?"  Part="1" 
AR Path="/5E436A53" Ref="#PWR0106"  Part="1" 
F 0 "#PWR0106" H 1650 7400 50  0001 C CNN
F 1 "GND" H 1655 7477 50  0000 C CNN
F 2 "" H 1650 7650 50  0001 C CNN
F 3 "" H 1650 7650 50  0001 C CNN
	1    1650 7650
	1    0    0    -1  
$EndComp
$Comp
L power:GND #PWR?
U 1 1 5E436E06
P 1650 8600
AR Path="/5DE3964E/5E436E06" Ref="#PWR?"  Part="1" 
AR Path="/5E436E06" Ref="#PWR0107"  Part="1" 
F 0 "#PWR0107" H 1650 8350 50  0001 C CNN
F 1 "GND" H 1655 8427 50  0000 C CNN
F 2 "" H 1650 8600 50  0001 C CNN
F 3 "" H 1650 8600 50  0001 C CNN
	1    1650 8600
	1    0    0    -1  
$EndComp
$Comp
L power:GND #PWR?
U 1 1 5E436EE1
P 1650 9500
AR Path="/5DE3964E/5E436EE1" Ref="#PWR?"  Part="1" 
AR Path="/5E436EE1" Ref="#PWR0108"  Part="1" 
F 0 "#PWR0108" H 1650 9250 50  0001 C CNN
F 1 "GND" H 1655 9327 50  0000 C CNN
F 2 "" H 1650 9500 50  0001 C CNN
F 3 "" H 1650 9500 50  0001 C CNN
	1    1650 9500
	1    0    0    -1  
$EndComp
$Comp
L power:GND #PWR0109
U 1 1 5E438142
P 4250 1900
F 0 "#PWR0109" H 4250 1650 50  0001 C CNN
F 1 "GND" H 4255 1727 50  0000 C CNN
F 2 "" H 4250 1900 50  0001 C CNN
F 3 "" H 4250 1900 50  0001 C CNN
	1    4250 1900
	1    0    0    -1  
$EndComp
$Comp
L power:-12VA #PWR0122
U 1 1 5E3A52BC
P 10500 5850
F 0 "#PWR0122" H 10500 5700 50  0001 C CNN
F 1 "-12VA" H 10515 6023 50  0000 C CNN
F 2 "" H 10500 5850 50  0001 C CNN
F 3 "" H 10500 5850 50  0001 C CNN
	1    10500 5850
	-1   0    0    1   
$EndComp
$Comp
L Connector_Generic:Conn_02x05_Odd_Even J5
U 1 1 5E3C3458
P 10450 5500
F 0 "J5" H 10500 4800 50  0000 C CNN
F 1 "CV_SUPPLY_TOP" H 10250 4700 50  0000 L CNN
F 2 "Connector_PinHeader_2.54mm:PinHeader_2x05_P2.54mm_Vertical" H 10450 5500 50  0001 C CNN
F 3 "~" H 10450 5500 50  0001 C CNN
	1    10450 5500
	1    0    0    -1  
$EndComp
Wire Wire Line
	11600 5500 11600 5100
Wire Wire Line
	10750 5500 11600 5500
Wire Wire Line
	10250 5500 9400 5500
Wire Wire Line
	9400 5500 9400 5100
Wire Wire Line
	9400 5100 11600 5100
Connection ~ 11600 5100
Wire Wire Line
	11600 5100 11600 5050
Text Notes 14350 8100 0    50   ~ 0
Tweak values to modify output range
Text Notes 2950 7200 0    50   ~ 0
0-12V range
$Comp
L Transistor_BJT:BC550 Q2
U 1 1 5E92D7CE
P 4450 7350
F 0 "Q2" H 4641 7396 50  0000 L CNN
F 1 "BC550" H 4641 7305 50  0000 L CNN
F 2 "Package_TO_SOT_THT:TO-92_Inline_Wide" H 4650 7275 50  0001 L CIN
F 3 "http://www.fairchildsemi.com/ds/BC/BC547.pdf" H 4450 7350 50  0001 L CNN
	1    4450 7350
	1    0    0    -1  
$EndComp
$Comp
L Device:R R?
U 1 1 5E94CCFE
P 4550 8150
AR Path="/5DE395EF/5E94CCFE" Ref="R?"  Part="1" 
AR Path="/5E94CCFE" Ref="R60"  Part="1" 
F 0 "R60" V 4450 8100 50  0000 C CNN
F 1 "1k" V 4550 8150 50  0000 C CNN
F 2 "Resistor_THT:R_Axial_DIN0207_L6.3mm_D2.5mm_P10.16mm_Horizontal" V 4480 8150 50  0001 C CNN
F 3 "~" H 4550 8150 50  0001 C CNN
	1    4550 8150
	-1   0    0    1   
$EndComp
Wire Wire Line
	4550 8300 4550 8350
$Comp
L power:GND #PWR0101
U 1 1 5E957C95
P 4550 8350
F 0 "#PWR0101" H 4550 8100 50  0001 C CNN
F 1 "GND" H 4555 8177 50  0000 C CNN
F 2 "" H 4550 8350 50  0001 C CNN
F 3 "" H 4550 8350 50  0001 C CNN
	1    4550 8350
	1    0    0    -1  
$EndComp
Wire Wire Line
	4550 7900 4550 7950
Connection ~ 4550 7950
Wire Wire Line
	4550 7950 4550 8000
Wire Wire Line
	4550 7550 4550 7600
Wire Wire Line
	4550 7150 4550 7100
Wire Wire Line
	4250 7350 4200 7350
Wire Wire Line
	5500 7950 5400 7950
$Comp
L Transistor_BJT:BC550 Q4
U 1 1 5E9AE0B9
P 5300 7350
F 0 "Q4" H 5491 7396 50  0000 L CNN
F 1 "BC550" H 5491 7305 50  0000 L CNN
F 2 "Package_TO_SOT_THT:TO-92_Inline_Wide" H 5500 7275 50  0001 L CIN
F 3 "http://www.fairchildsemi.com/ds/BC/BC547.pdf" H 5300 7350 50  0001 L CNN
	1    5300 7350
	1    0    0    -1  
$EndComp
$Comp
L Device:R R?
U 1 1 5E9AE0C0
P 5400 8150
AR Path="/5DE395EF/5E9AE0C0" Ref="R?"  Part="1" 
AR Path="/5E9AE0C0" Ref="R62"  Part="1" 
F 0 "R62" V 5300 8100 50  0000 C CNN
F 1 "1k" V 5400 8150 50  0000 C CNN
F 2 "Resistor_THT:R_Axial_DIN0207_L6.3mm_D2.5mm_P10.16mm_Horizontal" V 5330 8150 50  0001 C CNN
F 3 "~" H 5400 8150 50  0001 C CNN
	1    5400 8150
	-1   0    0    1   
$EndComp
Wire Wire Line
	5400 8300 5400 8350
$Comp
L power:GND #PWR0103
U 1 1 5E9AE0C8
P 5400 8350
F 0 "#PWR0103" H 5400 8100 50  0001 C CNN
F 1 "GND" H 5405 8177 50  0000 C CNN
F 2 "" H 5400 8350 50  0001 C CNN
F 3 "" H 5400 8350 50  0001 C CNN
	1    5400 8350
	1    0    0    -1  
$EndComp
Wire Wire Line
	5400 7900 5400 7950
Connection ~ 5400 7950
Wire Wire Line
	5400 7950 5400 8000
Wire Wire Line
	5400 7550 5400 7600
Wire Wire Line
	5400 7150 5400 7100
Wire Wire Line
	5100 7350 5050 7350
Wire Wire Line
	6350 7950 6250 7950
$Comp
L Transistor_BJT:BC550 Q6
U 1 1 5E9BC2FC
P 6150 7350
F 0 "Q6" H 6341 7396 50  0000 L CNN
F 1 "BC550" H 6341 7305 50  0000 L CNN
F 2 "Package_TO_SOT_THT:TO-92_Inline_Wide" H 6350 7275 50  0001 L CIN
F 3 "http://www.fairchildsemi.com/ds/BC/BC547.pdf" H 6150 7350 50  0001 L CNN
	1    6150 7350
	1    0    0    -1  
$EndComp
$Comp
L Device:R R?
U 1 1 5E9BC303
P 6250 8150
AR Path="/5DE395EF/5E9BC303" Ref="R?"  Part="1" 
AR Path="/5E9BC303" Ref="R64"  Part="1" 
F 0 "R64" V 6150 8100 50  0000 C CNN
F 1 "1k" V 6250 8150 50  0000 C CNN
F 2 "Resistor_THT:R_Axial_DIN0207_L6.3mm_D2.5mm_P10.16mm_Horizontal" V 6180 8150 50  0001 C CNN
F 3 "~" H 6250 8150 50  0001 C CNN
	1    6250 8150
	-1   0    0    1   
$EndComp
Wire Wire Line
	6250 8300 6250 8350
$Comp
L power:GND #PWR0191
U 1 1 5E9BC30B
P 6250 8350
F 0 "#PWR0191" H 6250 8100 50  0001 C CNN
F 1 "GND" H 6255 8177 50  0000 C CNN
F 2 "" H 6250 8350 50  0001 C CNN
F 3 "" H 6250 8350 50  0001 C CNN
	1    6250 8350
	1    0    0    -1  
$EndComp
Wire Wire Line
	6250 7900 6250 7950
Connection ~ 6250 7950
Wire Wire Line
	6250 7950 6250 8000
Wire Wire Line
	6250 7550 6250 7600
Wire Wire Line
	6250 7150 6250 7100
Wire Wire Line
	5950 7350 5900 7350
Wire Wire Line
	7200 7950 7100 7950
$Comp
L Transistor_BJT:BC550 Q7
U 1 1 5E9DA2CB
P 7000 7350
F 0 "Q7" H 7191 7396 50  0000 L CNN
F 1 "BC550" H 7191 7305 50  0000 L CNN
F 2 "Package_TO_SOT_THT:TO-92_Inline_Wide" H 7200 7275 50  0001 L CIN
F 3 "http://www.fairchildsemi.com/ds/BC/BC547.pdf" H 7000 7350 50  0001 L CNN
	1    7000 7350
	1    0    0    -1  
$EndComp
$Comp
L Device:R R?
U 1 1 5E9DA2D2
P 7100 8150
AR Path="/5DE395EF/5E9DA2D2" Ref="R?"  Part="1" 
AR Path="/5E9DA2D2" Ref="R65"  Part="1" 
F 0 "R65" V 7000 8100 50  0000 C CNN
F 1 "1k" V 7100 8150 50  0000 C CNN
F 2 "Resistor_THT:R_Axial_DIN0207_L6.3mm_D2.5mm_P10.16mm_Horizontal" V 7030 8150 50  0001 C CNN
F 3 "~" H 7100 8150 50  0001 C CNN
	1    7100 8150
	-1   0    0    1   
$EndComp
Wire Wire Line
	7100 8300 7100 8350
$Comp
L power:GND #PWR0193
U 1 1 5E9DA2DA
P 7100 8350
F 0 "#PWR0193" H 7100 8100 50  0001 C CNN
F 1 "GND" H 7105 8177 50  0000 C CNN
F 2 "" H 7100 8350 50  0001 C CNN
F 3 "" H 7100 8350 50  0001 C CNN
	1    7100 8350
	1    0    0    -1  
$EndComp
Wire Wire Line
	7100 7900 7100 7950
Connection ~ 7100 7950
Wire Wire Line
	7100 7950 7100 8000
Wire Wire Line
	7100 7550 7100 7600
Wire Wire Line
	7100 7150 7100 7100
Wire Wire Line
	6800 7350 6750 7350
Wire Wire Line
	8050 7950 7950 7950
$Comp
L Transistor_BJT:BC550 Q9
U 1 1 5E9E838D
P 7850 7350
F 0 "Q9" H 8041 7396 50  0000 L CNN
F 1 "BC550" H 8041 7305 50  0000 L CNN
F 2 "Package_TO_SOT_THT:TO-92_Inline_Wide" H 8050 7275 50  0001 L CIN
F 3 "http://www.fairchildsemi.com/ds/BC/BC547.pdf" H 7850 7350 50  0001 L CNN
	1    7850 7350
	1    0    0    -1  
$EndComp
$Comp
L Device:R R?
U 1 1 5E9E8394
P 7950 8150
AR Path="/5DE395EF/5E9E8394" Ref="R?"  Part="1" 
AR Path="/5E9E8394" Ref="R67"  Part="1" 
F 0 "R67" V 7850 8100 50  0000 C CNN
F 1 "1k" V 7950 8150 50  0000 C CNN
F 2 "Resistor_THT:R_Axial_DIN0207_L6.3mm_D2.5mm_P10.16mm_Horizontal" V 7880 8150 50  0001 C CNN
F 3 "~" H 7950 8150 50  0001 C CNN
	1    7950 8150
	-1   0    0    1   
$EndComp
Wire Wire Line
	7950 8300 7950 8350
$Comp
L power:GND #PWR0195
U 1 1 5E9E839C
P 7950 8350
F 0 "#PWR0195" H 7950 8100 50  0001 C CNN
F 1 "GND" H 7955 8177 50  0000 C CNN
F 2 "" H 7950 8350 50  0001 C CNN
F 3 "" H 7950 8350 50  0001 C CNN
	1    7950 8350
	1    0    0    -1  
$EndComp
Wire Wire Line
	7950 7900 7950 7950
Connection ~ 7950 7950
Wire Wire Line
	7950 7950 7950 8000
Wire Wire Line
	7950 7550 7950 7600
Wire Wire Line
	7950 7150 7950 7100
Wire Wire Line
	7650 7350 7600 7350
Wire Wire Line
	8900 7950 8800 7950
$Comp
L Transistor_BJT:BC550 Q10
U 1 1 5E9FA946
P 8700 7350
F 0 "Q10" H 8891 7396 50  0000 L CNN
F 1 "BC550" H 8891 7305 50  0000 L CNN
F 2 "Package_TO_SOT_THT:TO-92_Inline_Wide" H 8900 7275 50  0001 L CIN
F 3 "http://www.fairchildsemi.com/ds/BC/BC547.pdf" H 8700 7350 50  0001 L CNN
	1    8700 7350
	1    0    0    -1  
$EndComp
$Comp
L Device:R R?
U 1 1 5E9FA94D
P 8800 8150
AR Path="/5DE395EF/5E9FA94D" Ref="R?"  Part="1" 
AR Path="/5E9FA94D" Ref="R68"  Part="1" 
F 0 "R68" V 8700 8100 50  0000 C CNN
F 1 "1k" V 8800 8150 50  0000 C CNN
F 2 "Resistor_THT:R_Axial_DIN0207_L6.3mm_D2.5mm_P10.16mm_Horizontal" V 8730 8150 50  0001 C CNN
F 3 "~" H 8800 8150 50  0001 C CNN
	1    8800 8150
	-1   0    0    1   
$EndComp
Wire Wire Line
	8800 8300 8800 8350
$Comp
L power:GND #PWR0197
U 1 1 5E9FA955
P 8800 8350
F 0 "#PWR0197" H 8800 8100 50  0001 C CNN
F 1 "GND" H 8805 8177 50  0000 C CNN
F 2 "" H 8800 8350 50  0001 C CNN
F 3 "" H 8800 8350 50  0001 C CNN
	1    8800 8350
	1    0    0    -1  
$EndComp
Wire Wire Line
	8800 7900 8800 7950
Connection ~ 8800 7950
Wire Wire Line
	8800 7950 8800 8000
Wire Wire Line
	8800 7550 8800 7600
Wire Wire Line
	8800 7150 8800 7100
Wire Wire Line
	8500 7350 8450 7350
Wire Wire Line
	4650 9850 4550 9850
$Comp
L Transistor_BJT:BC550 Q3
U 1 1 5EA1D925
P 4450 9250
F 0 "Q3" H 4641 9296 50  0000 L CNN
F 1 "BC550" H 4641 9205 50  0000 L CNN
F 2 "Package_TO_SOT_THT:TO-92_Inline_Wide" H 4650 9175 50  0001 L CIN
F 3 "http://www.fairchildsemi.com/ds/BC/BC547.pdf" H 4450 9250 50  0001 L CNN
	1    4450 9250
	1    0    0    -1  
$EndComp
$Comp
L Device:R R?
U 1 1 5EA1D92C
P 4550 10050
AR Path="/5DE395EF/5EA1D92C" Ref="R?"  Part="1" 
AR Path="/5EA1D92C" Ref="R61"  Part="1" 
F 0 "R61" V 4450 10000 50  0000 C CNN
F 1 "1k" V 4550 10050 50  0000 C CNN
F 2 "Resistor_THT:R_Axial_DIN0207_L6.3mm_D2.5mm_P10.16mm_Horizontal" V 4480 10050 50  0001 C CNN
F 3 "~" H 4550 10050 50  0001 C CNN
	1    4550 10050
	-1   0    0    1   
$EndComp
Wire Wire Line
	4550 10200 4550 10250
$Comp
L power:GND #PWR0199
U 1 1 5EA1D934
P 4550 10250
F 0 "#PWR0199" H 4550 10000 50  0001 C CNN
F 1 "GND" H 4555 10077 50  0000 C CNN
F 2 "" H 4550 10250 50  0001 C CNN
F 3 "" H 4550 10250 50  0001 C CNN
	1    4550 10250
	1    0    0    -1  
$EndComp
Wire Wire Line
	4550 9800 4550 9850
Connection ~ 4550 9850
Wire Wire Line
	4550 9850 4550 9900
Wire Wire Line
	4550 9450 4550 9500
Wire Wire Line
	4550 9050 4550 9000
Wire Wire Line
	4250 9250 4200 9250
Wire Wire Line
	6200 9850 6100 9850
$Comp
L Transistor_BJT:BC550 Q5
U 1 1 5EA6C012
P 6000 9250
F 0 "Q5" H 6191 9296 50  0000 L CNN
F 1 "BC550" H 6191 9205 50  0000 L CNN
F 2 "Package_TO_SOT_THT:TO-92_Inline_Wide" H 6200 9175 50  0001 L CIN
F 3 "http://www.fairchildsemi.com/ds/BC/BC547.pdf" H 6000 9250 50  0001 L CNN
	1    6000 9250
	1    0    0    -1  
$EndComp
$Comp
L Device:R R?
U 1 1 5EA6C019
P 6100 10050
AR Path="/5DE395EF/5EA6C019" Ref="R?"  Part="1" 
AR Path="/5EA6C019" Ref="R63"  Part="1" 
F 0 "R63" V 6000 10000 50  0000 C CNN
F 1 "1k" V 6100 10050 50  0000 C CNN
F 2 "Resistor_THT:R_Axial_DIN0207_L6.3mm_D2.5mm_P10.16mm_Horizontal" V 6030 10050 50  0001 C CNN
F 3 "~" H 6100 10050 50  0001 C CNN
	1    6100 10050
	-1   0    0    1   
$EndComp
Wire Wire Line
	6100 10200 6100 10250
$Comp
L power:GND #PWR0201
U 1 1 5EA6C021
P 6100 10250
F 0 "#PWR0201" H 6100 10000 50  0001 C CNN
F 1 "GND" H 6105 10077 50  0000 C CNN
F 2 "" H 6100 10250 50  0001 C CNN
F 3 "" H 6100 10250 50  0001 C CNN
	1    6100 10250
	1    0    0    -1  
$EndComp
Wire Wire Line
	6100 9800 6100 9850
Connection ~ 6100 9850
Wire Wire Line
	6100 9850 6100 9900
Wire Wire Line
	6100 9450 6100 9500
Wire Wire Line
	6100 9050 6100 9000
Wire Wire Line
	5800 9250 5750 9250
Wire Wire Line
	6100 9450 5850 9450
Wire Wire Line
	5850 9450 5850 9500
Connection ~ 6100 9450
Wire Wire Line
	5850 9800 5850 9900
Wire Wire Line
	5850 10200 5850 10250
Wire Wire Line
	5850 10250 6100 10250
Connection ~ 6100 10250
Wire Wire Line
	7800 9850 7700 9850
$Comp
L Transistor_BJT:BC550 Q8
U 1 1 5EADCDE0
P 7600 9250
F 0 "Q8" H 7791 9296 50  0000 L CNN
F 1 "BC550" H 7791 9205 50  0000 L CNN
F 2 "Package_TO_SOT_THT:TO-92_Inline_Wide" H 7800 9175 50  0001 L CIN
F 3 "http://www.fairchildsemi.com/ds/BC/BC547.pdf" H 7600 9250 50  0001 L CNN
	1    7600 9250
	1    0    0    -1  
$EndComp
$Comp
L Device:R R?
U 1 1 5EADCDE7
P 7700 10050
AR Path="/5DE395EF/5EADCDE7" Ref="R?"  Part="1" 
AR Path="/5EADCDE7" Ref="R66"  Part="1" 
F 0 "R66" V 7600 10000 50  0000 C CNN
F 1 "1k" V 7700 10050 50  0000 C CNN
F 2 "Resistor_THT:R_Axial_DIN0207_L6.3mm_D2.5mm_P10.16mm_Horizontal" V 7630 10050 50  0001 C CNN
F 3 "~" H 7700 10050 50  0001 C CNN
	1    7700 10050
	-1   0    0    1   
$EndComp
Wire Wire Line
	7700 10200 7700 10250
$Comp
L power:GND #PWR0203
U 1 1 5EADCDEF
P 7700 10250
F 0 "#PWR0203" H 7700 10000 50  0001 C CNN
F 1 "GND" H 7705 10077 50  0000 C CNN
F 2 "" H 7700 10250 50  0001 C CNN
F 3 "" H 7700 10250 50  0001 C CNN
	1    7700 10250
	1    0    0    -1  
$EndComp
Wire Wire Line
	7700 9800 7700 9850
Connection ~ 7700 9850
Wire Wire Line
	7700 9850 7700 9900
Wire Wire Line
	7700 9450 7700 9500
Wire Wire Line
	7700 9050 7700 9000
Wire Wire Line
	7400 9250 7350 9250
Wire Wire Line
	7700 9450 7450 9450
Wire Wire Line
	7450 9450 7450 9500
Connection ~ 7700 9450
Wire Wire Line
	7450 9800 7450 9900
Wire Wire Line
	7450 10200 7450 10250
Wire Wire Line
	7450 10250 7700 10250
Connection ~ 7700 10250
Wire Wire Line
	9400 9850 9300 9850
$Comp
L Transistor_BJT:BC550 Q11
U 1 1 5EB38D20
P 9200 9250
F 0 "Q11" H 9391 9296 50  0000 L CNN
F 1 "BC550" H 9391 9205 50  0000 L CNN
F 2 "Package_TO_SOT_THT:TO-92_Inline_Wide" H 9400 9175 50  0001 L CIN
F 3 "http://www.fairchildsemi.com/ds/BC/BC547.pdf" H 9200 9250 50  0001 L CNN
	1    9200 9250
	1    0    0    -1  
$EndComp
$Comp
L Device:R R?
U 1 1 5EB38D27
P 9300 10050
AR Path="/5DE395EF/5EB38D27" Ref="R?"  Part="1" 
AR Path="/5EB38D27" Ref="R69"  Part="1" 
F 0 "R69" V 9200 10000 50  0000 C CNN
F 1 "1k" V 9300 10050 50  0000 C CNN
F 2 "Resistor_THT:R_Axial_DIN0207_L6.3mm_D2.5mm_P10.16mm_Horizontal" V 9230 10050 50  0001 C CNN
F 3 "~" H 9300 10050 50  0001 C CNN
	1    9300 10050
	-1   0    0    1   
$EndComp
Wire Wire Line
	9300 10200 9300 10250
$Comp
L power:GND #PWR0205
U 1 1 5EB38D2F
P 9300 10250
F 0 "#PWR0205" H 9300 10000 50  0001 C CNN
F 1 "GND" H 9305 10077 50  0000 C CNN
F 2 "" H 9300 10250 50  0001 C CNN
F 3 "" H 9300 10250 50  0001 C CNN
	1    9300 10250
	1    0    0    -1  
$EndComp
Wire Wire Line
	9300 9800 9300 9850
Connection ~ 9300 9850
Wire Wire Line
	9300 9850 9300 9900
Wire Wire Line
	9300 9450 9300 9500
Wire Wire Line
	9300 9050 9300 9000
Wire Wire Line
	9000 9250 8950 9250
Wire Wire Line
	9300 9450 9050 9450
Wire Wire Line
	9050 9450 9050 9500
Connection ~ 9300 9450
Wire Wire Line
	9050 9800 9050 9900
Wire Wire Line
	9050 10200 9050 10250
Wire Wire Line
	9050 10250 9300 10250
Connection ~ 9300 10250
Text Notes 8900 10650 0    50   ~ 0
Any general NPN should work
Text Notes 3950 1850 0    50   ~ 0
B10K
Text Notes 1000 2100 0    50   ~ 0
B50K
$Comp
L Device:R R?
U 1 1 5E8D5163
P 4200 3450
AR Path="/5DE395EF/5E8D5163" Ref="R?"  Part="1" 
AR Path="/5E8D5163" Ref="R70"  Part="1" 
F 0 "R70" V 4100 3400 50  0000 C CNN
F 1 "1k" V 4200 3450 50  0000 C CNN
F 2 "Resistor_THT:R_Axial_DIN0207_L6.3mm_D2.5mm_P10.16mm_Horizontal" V 4130 3450 50  0001 C CNN
F 3 "~" H 4200 3450 50  0001 C CNN
	1    4200 3450
	-1   0    0    1   
$EndComp
Wire Wire Line
	4300 3650 4200 3650
$Comp
L Transistor_BJT:BC550 Q12
U 1 1 5E8D517A
P 4100 3050
F 0 "Q12" H 4291 3096 50  0000 L CNN
F 1 "BC550" H 4291 3005 50  0000 L CNN
F 2 "Package_TO_SOT_THT:TO-92_Inline_Wide" H 4300 2975 50  0001 L CIN
F 3 "http://www.fairchildsemi.com/ds/BC/BC547.pdf" H 4100 3050 50  0001 L CNN
	1    4100 3050
	1    0    0    -1  
$EndComp
$Comp
L Device:R R?
U 1 1 5E8D5181
P 4200 3850
AR Path="/5DE395EF/5E8D5181" Ref="R?"  Part="1" 
AR Path="/5E8D5181" Ref="R71"  Part="1" 
F 0 "R71" V 4100 3800 50  0000 C CNN
F 1 "1k" V 4200 3850 50  0000 C CNN
F 2 "Resistor_THT:R_Axial_DIN0207_L6.3mm_D2.5mm_P10.16mm_Horizontal" V 4130 3850 50  0001 C CNN
F 3 "~" H 4200 3850 50  0001 C CNN
	1    4200 3850
	-1   0    0    1   
$EndComp
Wire Wire Line
	4200 4000 4200 4050
$Comp
L power:GND #PWR0189
U 1 1 5E8D5189
P 4200 4050
F 0 "#PWR0189" H 4200 3800 50  0001 C CNN
F 1 "GND" H 4205 3877 50  0000 C CNN
F 2 "" H 4200 4050 50  0001 C CNN
F 3 "" H 4200 4050 50  0001 C CNN
	1    4200 4050
	1    0    0    -1  
$EndComp
Wire Wire Line
	4200 3600 4200 3650
Connection ~ 4200 3650
Wire Wire Line
	4200 3650 4200 3700
Wire Wire Line
	4200 3250 4200 3300
Wire Wire Line
	4200 2850 4200 2800
Wire Wire Line
	3750 3050 3900 3050
$Comp
L power:+12VA #PWR0102
U 1 1 5E9014F9
P 4200 2800
F 0 "#PWR0102" H 4200 2650 50  0001 C CNN
F 1 "+12VA" H 4215 2973 50  0000 C CNN
F 2 "" H 4200 2800 50  0001 C CNN
F 3 "" H 4200 2800 50  0001 C CNN
	1    4200 2800
	1    0    0    -1  
$EndComp
$Comp
L power:+12VA #PWR0190
U 1 1 5E9018EE
P 4550 7100
F 0 "#PWR0190" H 4550 6950 50  0001 C CNN
F 1 "+12VA" H 4565 7273 50  0000 C CNN
F 2 "" H 4550 7100 50  0001 C CNN
F 3 "" H 4550 7100 50  0001 C CNN
	1    4550 7100
	1    0    0    -1  
$EndComp
$Comp
L power:+12VA #PWR0192
U 1 1 5E9023AF
P 5400 7100
F 0 "#PWR0192" H 5400 6950 50  0001 C CNN
F 1 "+12VA" H 5415 7273 50  0000 C CNN
F 2 "" H 5400 7100 50  0001 C CNN
F 3 "" H 5400 7100 50  0001 C CNN
	1    5400 7100
	1    0    0    -1  
$EndComp
$Comp
L power:+12VA #PWR0194
U 1 1 5E9024B2
P 6250 7100
F 0 "#PWR0194" H 6250 6950 50  0001 C CNN
F 1 "+12VA" H 6265 7273 50  0000 C CNN
F 2 "" H 6250 7100 50  0001 C CNN
F 3 "" H 6250 7100 50  0001 C CNN
	1    6250 7100
	1    0    0    -1  
$EndComp
$Comp
L power:+12VA #PWR0196
U 1 1 5E9025B5
P 7100 7100
F 0 "#PWR0196" H 7100 6950 50  0001 C CNN
F 1 "+12VA" H 7115 7273 50  0000 C CNN
F 2 "" H 7100 7100 50  0001 C CNN
F 3 "" H 7100 7100 50  0001 C CNN
	1    7100 7100
	1    0    0    -1  
$EndComp
$Comp
L power:+12VA #PWR0198
U 1 1 5E902926
P 7950 7100
F 0 "#PWR0198" H 7950 6950 50  0001 C CNN
F 1 "+12VA" H 7965 7273 50  0000 C CNN
F 2 "" H 7950 7100 50  0001 C CNN
F 3 "" H 7950 7100 50  0001 C CNN
	1    7950 7100
	1    0    0    -1  
$EndComp
$Comp
L power:+12VA #PWR0200
U 1 1 5E902A29
P 8800 7100
F 0 "#PWR0200" H 8800 6950 50  0001 C CNN
F 1 "+12VA" H 8815 7273 50  0000 C CNN
F 2 "" H 8800 7100 50  0001 C CNN
F 3 "" H 8800 7100 50  0001 C CNN
	1    8800 7100
	1    0    0    -1  
$EndComp
$Comp
L power:+12VA #PWR0202
U 1 1 5E902D20
P 4550 9000
F 0 "#PWR0202" H 4550 8850 50  0001 C CNN
F 1 "+12VA" H 4565 9173 50  0000 C CNN
F 2 "" H 4550 9000 50  0001 C CNN
F 3 "" H 4550 9000 50  0001 C CNN
	1    4550 9000
	1    0    0    -1  
$EndComp
$Comp
L power:+12VA #PWR0204
U 1 1 5E902E23
P 6100 9000
F 0 "#PWR0204" H 6100 8850 50  0001 C CNN
F 1 "+12VA" H 6115 9173 50  0000 C CNN
F 2 "" H 6100 9000 50  0001 C CNN
F 3 "" H 6100 9000 50  0001 C CNN
	1    6100 9000
	1    0    0    -1  
$EndComp
$Comp
L power:+12VA #PWR0206
U 1 1 5E9030A5
P 7700 9000
F 0 "#PWR0206" H 7700 8850 50  0001 C CNN
F 1 "+12VA" H 7715 9173 50  0000 C CNN
F 2 "" H 7700 9000 50  0001 C CNN
F 3 "" H 7700 9000 50  0001 C CNN
	1    7700 9000
	1    0    0    -1  
$EndComp
$Comp
L power:+12VA #PWR0207
U 1 1 5E9031A8
P 9300 9000
F 0 "#PWR0207" H 9300 8850 50  0001 C CNN
F 1 "+12VA" H 9315 9173 50  0000 C CNN
F 2 "" H 9300 9000 50  0001 C CNN
F 3 "" H 9300 9000 50  0001 C CNN
	1    9300 9000
	1    0    0    -1  
$EndComp
Text Notes 1350 3150 0    50   ~ 0
trigger around 2 V
Text Notes 10250 9200 0    50   ~ 0
Rev 2 notes:\n- Added transistor buffers on all pulse outputs\n- Boosted noise source to higher level\n- 1+2+4+7 output is now available on the back (if needed)\n- Pots are now in the right direction (CW)\n- Slight rework on silkscreen\n- Better trimmer value (1M is way too big)\nRev 2.1 notes:\n- Changed some values in noise circuit\n- 1K resistor on CV output (with the span trimmer only, it could be 0R)\n- Capacitor on Volts output to avoid ripple\n- Shift registers now use clock from CD4050 buffer, making it more robust
$Comp
L Device:R R?
U 1 1 5E818F4D
P 13400 7500
AR Path="/5DE3964E/5E818F4D" Ref="R?"  Part="1" 
AR Path="/5E818F4D" Ref="R36"  Part="1" 
F 0 "R36" V 13300 7500 50  0000 C CNN
F 1 "10k" V 13400 7500 50  0000 C CNN
F 2 "Resistor_THT:R_Axial_DIN0207_L6.3mm_D2.5mm_P10.16mm_Horizontal" V 13330 7500 50  0001 C CNN
F 3 "~" H 13400 7500 50  0001 C CNN
	1    13400 7500
	0    1    1    0   
$EndComp
$Comp
L Device:R R72
U 1 1 5EE7E3D9
P 4750 1650
F 0 "R72" V 4650 1600 50  0000 C CNN
F 1 "1k" V 4750 1650 50  0000 C CNN
F 2 "Resistor_THT:R_Axial_DIN0207_L6.3mm_D2.5mm_P10.16mm_Horizontal" V 4680 1650 50  0001 C CNN
F 3 "~" H 4750 1650 50  0001 C CNN
	1    4750 1650
	0    1    1    0   
$EndComp
Wire Wire Line
	4900 1650 4950 1650
$Comp
L Device:C C30
U 1 1 5EDEA4BB
P 14050 6800
F 0 "C30" V 14150 6950 50  0000 C CNN
F 1 "22p" V 13950 6950 50  0000 C CNN
F 2 "Capacitor_THT:C_Disc_D8.0mm_W2.5mm_P5.00mm" H 14088 6650 50  0001 C CNN
F 3 "~" H 14050 6800 50  0001 C CNN
	1    14050 6800
	0    1    1    0   
$EndComp
Wire Wire Line
	13600 7100 13600 6800
Wire Wire Line
	13600 6800 13900 6800
Connection ~ 13600 7100
Wire Wire Line
	14200 6800 14800 6800
Wire Wire Line
	14800 6800 14800 7100
Connection ~ 14800 7100
Text Notes 12950 7650 0    50   ~ 0
0-10V
$EndSCHEMATC
