(module 0.156_4pin (layer F.Cu) (tedit 5C9CDD75)
  (fp_text reference REF** (at -6.223 3.937) (layer F.SilkS)
    (effects (font (size 1 1) (thickness 0.15)))
  )
  (fp_text value 0.156_4pin (at -4.191 -5.715) (layer F.Fab)
    (effects (font (size 1 1) (thickness 0.15)))
  )
  (fp_line (start 8.001 -4.572) (end 8.001 3.048) (layer F.SilkS) (width 0.15))
  (fp_line (start 8.001 -2.794) (end -8.128 -2.794) (layer F.SilkS) (width 0.15))
  (fp_line (start -8.128 3.048) (end -8.128 -2.794) (layer F.SilkS) (width 0.15))
  (fp_line (start 8.001 3.048) (end -8.128 3.048) (layer F.SilkS) (width 0.15))
  (fp_line (start 8.001 -4.572) (end -8.128 -4.572) (layer F.SilkS) (width 0.15))
  (fp_line (start -8.128 -2.794) (end -8.128 -4.572) (layer F.SilkS) (width 0.15))
  (fp_circle (center 5.842 -3.683) (end 6.477 -3.81) (layer F.SilkS) (width 0.15))
  (fp_circle (center -5.969 -3.683) (end -5.334 -3.81) (layer F.SilkS) (width 0.15))
  (fp_line (start 5.461 -3.683) (end 6.223 -3.683) (layer F.SilkS) (width 0.15))
  (fp_line (start 5.842 -4.064) (end 5.842 -3.302) (layer F.SilkS) (width 0.15))
  (fp_line (start -6.35 -3.683) (end -5.588 -3.683) (layer F.SilkS) (width 0.15))
  (pad 1 thru_hole oval (at 5.842 0) (size 2.794 3.81) (drill 1.778) (layers *.Cu *.Mask))
  (pad 2 thru_hole oval (at 1.905 0) (size 2.794 3.81) (drill 1.778) (layers *.Cu *.Mask))
  (pad 3 thru_hole oval (at -2.032 0) (size 2.794 3.81) (drill 1.778) (layers *.Cu *.Mask))
  (pad 4 thru_hole oval (at -5.969 0) (size 2.794 3.81) (drill 1.778) (layers *.Cu *.Mask))
)
