(module alpha_9mm_vert (layer F.Cu) (tedit 5C13A3C3)
  (fp_text reference REF** (at 0 9.58) (layer F.SilkS)
    (effects (font (size 1 1) (thickness 0.15)))
  )
  (fp_text value alpha_9mm_vert (at 0 -7.5) (layer F.Fab)
    (effects (font (size 1 1) (thickness 0.15)))
  )
  (fp_arc (start 4.5 6) (end 4.5 7.5) (angle -90) (layer F.SilkS) (width 0.15))
  (fp_line (start 4.5 7.5) (end 3.5 7.5) (layer F.SilkS) (width 0.15))
  (fp_line (start 1.5 7.5) (end 1 7.5) (layer F.SilkS) (width 0.15))
  (fp_line (start -1 7.5) (end -1.5 7.5) (layer F.SilkS) (width 0.15))
  (fp_line (start -3.5 7.5) (end -4.5 7.5) (layer F.SilkS) (width 0.15))
  (fp_line (start 6 6) (end 6 1.5) (layer F.SilkS) (width 0.15))
  (fp_arc (start -4.5 6) (end -6 6) (angle -90) (layer F.SilkS) (width 0.15))
  (fp_line (start -6 6) (end -6 1.5) (layer F.SilkS) (width 0.15))
  (fp_line (start -6 -1.5) (end -6 -3) (layer F.SilkS) (width 0.15))
  (fp_arc (start -4.5 -3.5) (end -4.5 -5) (angle -90) (layer F.SilkS) (width 0.15))
  (fp_line (start -6 -3) (end -6 -3.5) (layer F.SilkS) (width 0.15))
  (fp_line (start 6 -1.5) (end 6 -3.5) (layer F.SilkS) (width 0.15))
  (fp_arc (start 4.5 -3.5) (end 6 -3.5) (angle -90) (layer F.SilkS) (width 0.15))
  (fp_line (start -4.5 -5) (end 4.5 -5) (layer F.SilkS) (width 0.15))
  (fp_circle (center 0 0) (end 2.5 -1) (layer F.SilkS) (width 0.15))
  (pad 1 thru_hole circle (at -2.5 7.5) (size 2 2) (drill 1) (layers *.Cu *.Mask))
  (pad 2 thru_hole circle (at 0 7.5) (size 2 2) (drill 1) (layers *.Cu *.Mask))
  (pad 3 thru_hole circle (at 2.5 7.5) (size 2 2) (drill 1) (layers *.Cu *.Mask))
  (pad "" thru_hole circle (at -5.7 0) (size 3 3) (drill 2) (layers *.Cu *.Mask))
  (pad "" thru_hole circle (at 5.7 0) (size 3 3) (drill 2) (layers *.Cu *.Mask))
)
