M48
; DRILL file {KiCad 5.1.7-a382d34a8~87~ubuntu18.04.1} date Sat Oct 31 09:29:19 2020
; FORMAT={-:-/ absolute / metric / decimal}
; #@! TF.CreationDate,2020-10-31T09:29:19+01:00
; #@! TF.GenerationSoftware,Kicad,Pcbnew,5.1.7-a382d34a8~87~ubuntu18.04.1
FMAT,2
METRIC
T1C0.500
T2C0.700
T3C0.800
T4C0.900
T5C1.000
T6C1.100
T7C1.778
T8C2.000
T9C0.500
T10C3.200
T11C8.000
%
G90
G05
T1
X48.666Y-250.19
X49.073Y-175.819
X49.174Y-213.817
X49.225Y-232.918
X52.121Y-153.492
X53.264Y-130.124
X64.694Y-163.652
X66.421Y-203.835
X66.548Y-133.858
X66.853Y-172.288
X67.361Y-212.039
X69.393Y-143.713
X71.755Y-195.961
X72.39Y-221.234
X76.225Y-129.388
X76.581Y-156.972
X80.645Y-182.308
X81.534Y-168.275
X83.312Y-129.032
X85.661Y-137.35
X85.852Y-177.038
X86.563Y-158.191
X86.741Y-213.36
X86.741Y-232.346
X87.122Y-135.953
X87.503Y-120.65
X88.646Y-134.112
X88.798Y-155.537
X89.002Y-166.98
X89.027Y-196.151
X89.357Y-141.021
X90.83Y-139.852
X91.059Y-174.244
X96.52Y-120.65
X97.536Y-174.244
X97.536Y-189.23
X98.679Y-139.141
X101.282Y-177.292
X101.6Y-163.195
X103.124Y-199.39
X104.318Y-134.061
X105.08Y-111.582
X108.509Y-139.141
X109.347Y-237.744
X109.41Y-250.507
X109.474Y-177.673
X110.871Y-170.942
X110.998Y-196.85
X111.379Y-179.451
X111.633Y-165.989
X112.268Y-226.25
X112.649Y-206.121
X114.046Y-173.355
X115.57Y-207.645
X116.205Y-199.771
X116.764Y-111.582
X116.764Y-120.599
X117.983Y-186.944
X120.396Y-193.675
X122.428Y-166.116
X123.571Y-171.831
X124.841Y-172.72
X129.54Y-178.943
X129.54Y-197.866
X129.591Y-111.582
X129.591Y-120.599
X129.591Y-129.743
X129.591Y-138.76
X144.17Y-203.581
X145.948Y-170.942
X145.948Y-180.086
X146.177Y-113.284
X151.282Y-189.611
X151.282Y-203.581
X154.191Y-124.536
X155.588Y-140.475
X155.981Y-184.034
X156.185Y-107.518
X156.82Y-162.966
X156.947Y-160.071
X157.607Y-203.581
X159.029Y-176.022
X159.029Y-178.435
X160.68Y-179.832
X160.782Y-150.114
X163.728Y-173.736
X164.255Y-180.994
X164.744Y-203.581
X166.141Y-125.984
X167.462Y-120.599
X169.57Y-162.662
X171.196Y-171.196
X171.348Y-127.991
X171.348Y-131.064
X176.022Y-120.98
X176.022Y-149.25
X177.267Y-140.462
X177.292Y-143.027
X177.292Y-145.542
X178.333Y-203.581
X178.384Y-136.601
X178.537Y-179.553
X180.797Y-169.469
X181.305Y-167.437
X181.813Y-150.368
X182.067Y-165.1
X182.245Y-140.487
X182.245Y-143.027
X182.245Y-145.542
X182.245Y-148.234
X183.032Y-163.271
X183.972Y-155.143
X184.404Y-139.192
X184.404Y-141.732
X184.404Y-144.272
X184.404Y-146.812
X184.556Y-189.611
X185.432Y-187.947
X185.572Y-122.58
X186.08Y-196.342
X186.08Y-200.279
X187.858Y-192.913
X189.128Y-191.643
X189.128Y-199.39
X189.515Y-159.492
X189.535Y-160.782
X189.553Y-162.032
X189.56Y-164.541
X189.586Y-167.132
X190.5Y-176.657
X191.033Y-184.277
X191.033Y-185.801
X191.033Y-191.389
X191.033Y-202.438
X191.033Y-206.502
X191.033Y-194.564
X191.033Y-200.787
X191.465Y-146.888
X191.465Y-170.256
X191.795Y-105.766
X192.278Y-172.872
X192.354Y-169.24
X193.192Y-130.404
X193.192Y-168.351
X194.056Y-167.386
X194.31Y-162.408
X194.894Y-169.875
X195.656Y-162.382
X196.367Y-176.276
X197.612Y-163.576
X197.891Y-180.213
X199.161Y-187.198
X199.593Y-154.889
X200.533Y-130.429
X200.558Y-191.008
X200.66Y-197.612
X201.32Y-179.07
X203.479Y-206.502
X205.13Y-179.451
X205.892Y-183.272
X206.07Y-199.517
X207.035Y-120.701
X208.305Y-187.706
X208.509Y-105.791
X209.067Y-177.546
X209.347Y-151.587
X209.702Y-196.977
X210.337Y-177.546
X210.401Y-183.325
X212.242Y-198.628
X212.725Y-157.607
X213.766Y-180.34
X216.052Y-198.628
X217.17Y-141.021
X217.83Y-155.575
X218.084Y-188.366
X221.158Y-131.191
X222.275Y-173.736
X222.275Y-176.276
X223.901Y-137.592
X224.18Y-159.766
X228.879Y-206.502
X231.064Y-115.011
X231.191Y-128.803
X231.191Y-141.199
X231.546Y-161.036
X231.546Y-176.149
T2
X69.088Y-191.77
X69.787Y-194.31
X164.668Y-154.254
X179.578Y-152.756
X195.021Y-174.396
X195.529Y-153.518
T3
X70.739Y-149.225
X70.739Y-159.385
X94.361Y-241.3
X94.361Y-251.46
X221.691Y-155.524
X224.231Y-155.524
X226.771Y-155.524
X145.186Y-145.161
X145.186Y-155.321
X160.934Y-188.341
X160.934Y-190.881
X160.934Y-193.421
X160.934Y-195.961
X160.934Y-198.501
X160.934Y-201.041
X160.934Y-203.581
X168.554Y-188.341
X168.554Y-190.881
X168.554Y-193.421
X168.554Y-195.961
X168.554Y-198.501
X168.554Y-201.041
X168.554Y-203.581
X158.394Y-121.92
X158.394Y-126.92
X215.417Y-139.446
X225.577Y-139.446
X192.938Y-113.919
X192.938Y-124.079
X205.448Y-139.192
X210.448Y-139.192
X114.173Y-144.272
X114.173Y-154.432
X205.765Y-113.411
X210.765Y-113.411
X216.052Y-110.236
X226.212Y-110.236
X68.834Y-240.792
X68.834Y-250.952
X49.022Y-149.225
X49.022Y-159.385
X151.79Y-139.192
X151.79Y-141.732
X151.79Y-144.272
X151.79Y-146.812
X159.41Y-139.192
X159.41Y-141.732
X159.41Y-144.272
X159.41Y-146.812
X119.761Y-241.3
X119.761Y-251.46
X145.186Y-132.334
X145.186Y-142.494
X92.329Y-144.272
X92.329Y-154.432
X151.536Y-119.253
X151.536Y-129.413
X218.672Y-116.84
X223.672Y-116.84
X168.681Y-150.241
X173.681Y-150.241
X194.462Y-126.492
X194.462Y-136.652
X204.241Y-120.269
X204.241Y-122.809
X204.241Y-125.349
X204.241Y-127.889
X204.241Y-130.429
X204.241Y-132.969
X204.241Y-135.509
X211.861Y-120.269
X211.861Y-122.809
X211.861Y-125.349
X211.861Y-127.889
X211.861Y-130.429
X211.861Y-132.969
X211.861Y-135.509
X215.417Y-146.05
X225.577Y-146.05
X215.417Y-142.748
X225.577Y-142.748
X176.047Y-184.785
X181.047Y-184.785
X148.361Y-145.161
X148.361Y-152.781
X97.409Y-222.25
X97.409Y-232.41
X148.361Y-119.253
X148.361Y-129.413
X94.361Y-184.023
X94.361Y-194.183
X48.006Y-199.39
X58.166Y-199.39
X61.595Y-207.391
X61.595Y-217.551
X186.461Y-107.823
X186.461Y-117.983
X106.426Y-117.348
X106.426Y-127.508
X151.155Y-111.76
X161.315Y-111.76
X197.336Y-182.372
X202.336Y-182.372
X61.976Y-186.69
X61.976Y-189.23
X61.976Y-191.77
X201.32Y-160.02
X201.32Y-165.02
X111.506Y-201.168
X121.666Y-201.168
X163.347Y-141.097
X163.347Y-151.257
X148.996Y-184.785
X153.996Y-184.785
X114.3Y-234.315
X116.84Y-234.315
X119.38Y-234.315
X62.31Y-221.234
X67.31Y-221.234
X210.337Y-142.748
X210.337Y-147.748
X92.329Y-238.252
X94.869Y-238.252
X97.409Y-238.252
X196.113Y-113.919
X196.113Y-124.079
X162.458Y-184.785
X167.458Y-184.785
X92.329Y-219.202
X94.869Y-219.202
X97.409Y-219.202
X125.095Y-144.272
X125.095Y-154.432
X124.46Y-218.44
X134.62Y-218.44
X73.66Y-179.451
X83.82Y-179.451
X73.533Y-198.374
X83.693Y-198.374
X127.0Y-160.655
X129.54Y-160.655
X132.08Y-160.655
X124.46Y-199.39
X134.62Y-199.39
X205.13Y-159.766
X205.13Y-162.306
X205.13Y-164.846
X205.13Y-167.386
X205.13Y-169.926
X205.13Y-172.466
X205.13Y-175.006
X205.13Y-177.546
X212.75Y-159.766
X212.75Y-162.306
X212.75Y-164.846
X212.75Y-167.386
X212.75Y-169.926
X212.75Y-172.466
X212.75Y-175.006
X212.75Y-177.546
X73.533Y-236.728
X83.693Y-236.728
X208.305Y-193.929
X208.305Y-204.089
X124.46Y-180.467
X134.62Y-180.467
X220.37Y-159.766
X220.37Y-162.306
X220.37Y-164.846
X220.37Y-167.386
X220.37Y-169.926
X220.37Y-172.466
X220.37Y-175.006
X220.37Y-177.546
X227.99Y-159.766
X227.99Y-162.306
X227.99Y-164.846
X227.99Y-167.386
X227.99Y-169.926
X227.99Y-172.466
X227.99Y-175.006
X227.99Y-177.546
X163.347Y-128.46
X163.347Y-138.62
X205.384Y-142.748
X205.384Y-147.748
X111.506Y-181.991
X121.666Y-181.991
X124.46Y-234.315
X134.62Y-234.315
X221.259Y-185.928
X221.259Y-188.468
X221.259Y-191.008
X221.259Y-193.548
X221.259Y-196.088
X221.259Y-198.628
X221.259Y-201.168
X221.259Y-203.708
X228.879Y-185.928
X228.879Y-188.468
X228.879Y-191.008
X228.879Y-193.548
X228.879Y-196.088
X228.879Y-198.628
X228.879Y-201.168
X228.879Y-203.708
X48.387Y-141.478
X58.547Y-141.478
X153.14Y-150.114
X158.14Y-150.114
X216.052Y-113.411
X226.212Y-113.411
X195.478Y-185.928
X195.478Y-188.468
X195.478Y-191.008
X195.478Y-193.548
X195.478Y-196.088
X195.478Y-198.628
X195.478Y-201.168
X195.478Y-203.708
X203.098Y-185.928
X203.098Y-188.468
X203.098Y-191.008
X203.098Y-193.548
X203.098Y-196.088
X203.098Y-198.628
X203.098Y-201.168
X203.098Y-203.708
X92.329Y-200.152
X94.869Y-200.152
X97.409Y-200.152
X208.305Y-185.801
X208.305Y-190.801
X62.484Y-240.792
X62.484Y-250.952
X114.3Y-210.058
X116.84Y-210.058
X119.38Y-210.058
X205.765Y-116.84
X210.765Y-116.84
X194.462Y-143.891
X197.002Y-146.431
X199.542Y-143.891
X124.46Y-215.265
X134.62Y-215.265
X48.006Y-196.215
X58.166Y-196.215
X97.536Y-180.467
X107.696Y-180.467
X116.078Y-243.967
X116.078Y-246.507
X116.078Y-249.047
X122.809Y-241.3
X122.809Y-251.46
X147.505Y-188.341
X147.505Y-190.881
X147.505Y-193.421
X147.505Y-195.961
X147.505Y-198.501
X147.505Y-201.041
X147.505Y-203.581
X155.125Y-188.341
X155.125Y-190.881
X155.125Y-193.421
X155.125Y-195.961
X155.125Y-198.501
X155.125Y-201.041
X155.125Y-203.581
X167.411Y-129.032
X167.411Y-131.572
X167.411Y-134.112
X167.411Y-136.652
X167.411Y-139.192
X167.411Y-141.732
X167.411Y-144.272
X167.411Y-146.812
X175.031Y-129.032
X175.031Y-131.572
X175.031Y-134.112
X175.031Y-136.652
X175.031Y-139.192
X175.031Y-141.732
X175.031Y-144.272
X175.031Y-146.812
X124.46Y-196.215
X134.62Y-196.215
X153.14Y-135.89
X158.14Y-135.89
X94.361Y-203.2
X94.361Y-213.36
X111.76Y-135.509
X121.92Y-135.509
X124.46Y-177.292
X134.62Y-177.292
X114.173Y-190.881
X116.713Y-190.881
X119.253Y-190.881
X174.523Y-188.341
X174.523Y-190.881
X174.523Y-193.421
X174.523Y-195.961
X174.523Y-198.501
X174.523Y-201.041
X174.523Y-203.581
X182.143Y-188.341
X182.143Y-190.881
X182.143Y-193.421
X182.143Y-195.961
X182.143Y-198.501
X182.143Y-201.041
X182.143Y-203.581
X111.76Y-131.826
X121.92Y-131.826
X197.764Y-126.492
X197.764Y-136.652
X217.322Y-120.269
X217.322Y-122.809
X217.322Y-125.349
X217.322Y-127.889
X217.322Y-130.429
X217.322Y-132.969
X217.322Y-135.509
X224.942Y-120.269
X224.942Y-122.809
X224.942Y-125.349
X224.942Y-127.889
X224.942Y-130.429
X224.942Y-132.969
X224.942Y-135.509
X193.624Y-109.423
X196.164Y-109.423
X198.704Y-109.423
X216.052Y-185.801
X216.052Y-190.801
X62.357Y-237.236
X67.357Y-237.236
X165.546Y-116.459
X168.046Y-116.459
X103.378Y-144.272
X103.378Y-154.432
X59.436Y-243.332
X59.436Y-248.332
X217.957Y-149.479
X222.957Y-149.479
X65.659Y-240.792
X65.659Y-250.952
X199.288Y-113.919
X199.288Y-124.079
X101.6Y-160.782
X104.14Y-160.782
X106.68Y-160.782
X153.14Y-132.715
X158.14Y-132.715
X148.361Y-132.334
X148.361Y-142.494
X216.56Y-160.02
X216.56Y-165.02
X60.96Y-225.298
X60.96Y-227.838
X60.96Y-230.378
X60.96Y-232.918
X68.58Y-225.298
X68.58Y-227.838
X68.58Y-230.378
X68.58Y-232.918
X97.409Y-203.2
X97.409Y-213.36
X81.661Y-149.225
X81.661Y-159.385
X163.398Y-120.853
X163.398Y-123.393
X163.398Y-125.933
X64.77Y-207.391
X64.77Y-217.551
X212.242Y-193.929
X212.242Y-204.089
X206.324Y-155.524
X208.864Y-155.524
X211.404Y-155.524
X97.536Y-177.292
X107.696Y-177.292
X124.46Y-237.49
X134.62Y-237.49
X61.976Y-182.372
X66.976Y-182.372
X59.944Y-149.225
X59.944Y-159.385
X102.616Y-117.348
X102.616Y-127.508
X173.253Y-116.459
X175.753Y-116.459
X111.506Y-219.964
X121.666Y-219.964
X97.536Y-184.023
X97.536Y-194.183
X154.711Y-119.253
X154.711Y-129.413
X222.609Y-182.372
X227.609Y-182.372
X168.761Y-122.301
X173.761Y-122.301
X216.052Y-193.929
X216.052Y-204.089
X68.072Y-207.391
X68.072Y-217.551
X66.548Y-118.11
X66.548Y-128.27
X97.409Y-241.3
X97.409Y-251.46
X67.056Y-168.91
X67.056Y-179.07
X94.361Y-222.25
X94.361Y-232.41
X61.976Y-168.91
X61.976Y-179.07
X212.242Y-185.801
X212.242Y-190.801
X90.424Y-186.69
X90.424Y-189.23
X90.424Y-191.77
X168.681Y-125.603
X173.681Y-125.603
X73.66Y-217.551
X83.82Y-217.551
T4
X73.838Y-149.225
X76.378Y-149.225
X95.606Y-149.225
X98.146Y-149.225
X115.57Y-196.85
X118.11Y-196.85
X106.489Y-149.225
X109.029Y-149.225
X62.954Y-149.225
X65.494Y-149.225
X128.27Y-149.225
X130.81Y-149.225
X117.386Y-149.225
X119.926Y-149.225
X52.07Y-149.225
X54.61Y-149.225
X115.57Y-177.8
X118.11Y-177.8
X84.722Y-149.225
X87.262Y-149.225
X115.57Y-215.9
X118.11Y-215.9
T5
X73.736Y-121.031
X73.736Y-139.332
X76.225Y-121.031
X76.225Y-139.332
X78.74Y-121.031
X78.74Y-139.332
X81.229Y-121.031
X81.229Y-139.332
X83.744Y-121.031
X83.744Y-139.332
X76.24Y-232.925
X78.74Y-232.925
X81.24Y-232.925
X174.65Y-158.242
X174.65Y-160.782
X174.65Y-163.322
X174.65Y-165.862
X174.65Y-168.402
X174.65Y-170.942
X174.65Y-173.482
X174.65Y-176.022
X177.19Y-158.242
X177.19Y-160.782
X177.19Y-163.322
X177.19Y-165.862
X177.19Y-168.402
X177.19Y-170.942
X177.19Y-173.482
X177.19Y-176.022
X161.188Y-158.242
X161.188Y-160.782
X161.188Y-163.322
X161.188Y-165.862
X161.188Y-168.402
X161.188Y-170.942
X163.728Y-158.242
X163.728Y-160.782
X163.728Y-163.322
X163.728Y-165.862
X163.728Y-168.402
X163.728Y-170.942
X53.34Y-175.26
X53.213Y-193.294
X182.778Y-126.492
X182.778Y-129.032
X182.778Y-131.572
X182.778Y-134.112
X182.778Y-136.652
X185.318Y-126.492
X185.318Y-129.032
X185.318Y-131.572
X185.318Y-134.112
X185.318Y-136.652
X150.901Y-158.242
X150.901Y-160.782
X150.901Y-163.322
X150.901Y-165.862
X150.901Y-168.402
X150.901Y-170.942
X150.901Y-173.482
X150.901Y-176.022
X153.441Y-158.242
X153.441Y-160.782
X153.441Y-163.322
X153.441Y-165.862
X153.441Y-168.402
X153.441Y-170.942
X153.441Y-173.482
X153.441Y-176.022
X114.34Y-128.15
X116.84Y-128.15
X119.34Y-128.15
X144.018Y-195.961
X104.14Y-250.444
X104.14Y-193.294
X129.54Y-174.244
X115.57Y-158.242
X115.57Y-160.782
X115.57Y-163.322
X115.57Y-165.862
X115.57Y-168.402
X115.57Y-170.942
X118.11Y-158.242
X118.11Y-160.782
X118.11Y-163.322
X118.11Y-165.862
X118.11Y-168.402
X118.11Y-170.942
X50.84Y-137.675
X53.34Y-137.675
X55.84Y-137.675
X129.54Y-231.394
X104.14Y-212.344
X129.54Y-212.344
X53.34Y-213.36
X53.34Y-251.46
X76.24Y-213.875
X78.74Y-213.875
X81.24Y-213.875
X93.98Y-126.492
X93.98Y-129.032
X93.98Y-131.572
X93.98Y-134.112
X93.98Y-136.652
X96.52Y-126.492
X96.52Y-129.032
X96.52Y-131.572
X96.52Y-134.112
X96.52Y-136.652
X86.233Y-110.998
X76.24Y-251.975
X78.74Y-251.975
X81.24Y-251.975
X91.821Y-158.242
X91.821Y-160.782
X91.821Y-163.322
X91.821Y-165.862
X91.821Y-168.402
X91.821Y-170.942
X94.361Y-158.242
X94.361Y-160.782
X94.361Y-163.322
X94.361Y-165.862
X94.361Y-168.402
X94.361Y-170.942
X129.54Y-193.294
X76.24Y-175.775
X78.74Y-175.775
X81.24Y-175.775
X76.24Y-194.825
X78.74Y-194.825
X81.24Y-194.825
X104.14Y-231.394
X129.54Y-250.317
X104.14Y-174.244
X53.34Y-232.41
X66.548Y-109.22
X66.548Y-111.76
X66.548Y-114.3
X184.937Y-158.242
X184.937Y-160.782
X184.937Y-163.322
X184.937Y-165.862
X184.937Y-168.402
X184.937Y-170.942
X187.477Y-158.242
X187.477Y-160.782
X187.477Y-163.322
X187.477Y-165.862
X187.477Y-168.402
X187.477Y-170.942
T6
X182.778Y-107.823
X182.778Y-117.983
X151.155Y-107.823
X161.315Y-107.823
T7
X166.014Y-107.823
X169.951Y-107.823
X173.888Y-107.823
X177.825Y-107.823
T8
X70.739Y-129.07
X86.741Y-129.07
X73.04Y-225.425
X84.44Y-225.425
X111.14Y-120.65
X122.54Y-120.65
X47.64Y-130.175
X59.04Y-130.175
X73.04Y-206.375
X84.44Y-206.375
X73.04Y-244.475
X84.44Y-244.475
X73.04Y-168.275
X84.44Y-168.275
X73.04Y-187.325
X84.44Y-187.325
T9
X138.176Y-196.393
X141.097Y-153.492
X138.176Y-195.25
X141.097Y-116.078
X141.097Y-156.921
X138.176Y-113.792
X138.176Y-158.064
X141.097Y-158.064
X141.097Y-112.649
X138.176Y-116.078
X141.097Y-194.107
X138.176Y-155.778
X141.097Y-154.635
X138.176Y-197.536
X138.176Y-153.492
X141.097Y-155.778
X141.097Y-198.679
X138.176Y-154.635
X138.176Y-112.649
X141.097Y-117.221
X138.176Y-156.921
X138.176Y-198.679
X141.097Y-113.792
X138.176Y-194.107
X141.097Y-195.25
X138.176Y-114.935
X138.176Y-117.221
X141.097Y-114.935
X141.097Y-197.536
X141.097Y-196.393
T10
X91.846Y-179.832
X145.313Y-106.045
X187.452Y-179.832
X133.985Y-106.045
T11
X104.14Y-187.325
X104.14Y-225.425
X129.54Y-168.275
X53.34Y-206.375
X53.34Y-168.275
X53.34Y-225.425
X129.54Y-225.425
X104.14Y-168.275
X129.54Y-244.475
X129.54Y-187.325
X53.34Y-244.475
X129.54Y-206.375
X104.14Y-244.475
X104.14Y-206.375
X53.34Y-187.325
X78.74Y-111.125
T0
M30
